93d3a823ea7ad81bf7aead4247513b6a796baceb
e20d71ac756b813bd8c8eb44cf7a80cdd4c9f11e
e0eb5f778e04dc39268f0f0fcd2245a202e67819
e094f2dcd53ef8afdd064448ab7ff50a61e89a4a
fad493e379e36c385835a9903e54df1b0e8a2a8d
a21b8cb6e37559404f05e42b84f4d44b26bdce82
fc8ec28730294777f8f8cda54d4f27b9d6569ea7
e840e186daeba94b98c2eb2204e72b0b641240ac
bf43e3ac3ba1c1645e8c45c7692a774b53149367
bd157f8450616546bf74672af477307fd73728f8
678b80e6534ba1f09a078f015f693e738a71239b
b744d1fd28b60f607e09984f9d21c7a945501f58
9e3d92cbd968c57ed8663c12f388c05a307a81b8
3db7923c3231f8ff09d2cc32c4a28226679e850e
8464734078caa1b73e7e7c749bd1f99354f2567b
bafd20f596d8028021fea539e6c4292724cd6f2d
7ea31967006854c0a8ebff6e7ce9742a8b2f49bb
d2a4d94236b93804a688ae514a7a5e10df3a1713
f1f30508cb8ccd1e23167f1e0ab554ecfe2e3eaa
27d529e99024e3af26069565c8c743a36531fd93
3d5bdb3fddaa9d69af93b4d92889ec09cf68d814
84d60df9876e13ebc2a90899917155dd424323a4
d020ae1faab0058fc6ff38c17f245e2cf8a3d518
9dc680a99764d0817ac0201adec0470eea7e6f65
125c7fb93d396eb714ca26d6a737f35ecc538ce6
4e847d0c0d16d1b7a0b7ae481639ffef0dd8d34e
b881e62a0ba73ab4489c0d530098ec6c8f9adf3c
08836569926565e5bfb8c5c79a192978b0abda84
23b811c2fd98de9ebb8d7b3e6a2026b30c293fe8
9b771218ca8524f82b8baccaf15448907a35e5bd
a309e446872b76ff1da6f90e45bf13eb76083b2a
9875b165babf6f2adfe9a99553407a42c05f823e
07e3f0080f257bdbdd0fbc167a6731903f30b01c
73b956eb41b6f9e609ee9f613f25cae471d7bf45
6356648ca98644f9afad7a74381244be3c72417b
8d71e1eb847857dfc5a70df4ccb7aa1f6d575fb6
632e14fb72b2841aa3d075ce041ee1155606a696
57b533a79dba92712667e99c254436e78db7a7f1
a77ea94b685f8685f677e63979453599164150e3
48a3a96448cb56a80424a0112f70b5c42e0d3f64
602789e2649ed2bf8cb7c42ced8c1f37dbce9d06
3592cbb153112a8955e42604369f9c2feee9dd44
948069b52396b67c8ed48b177ac490478d4aa26d
f3a2629c80db4dde14ca365a3312096d5297e804
2a77cb83543171c9cb26f897e4c1563971d53329
38cc3952f9d708d25153cba7e7a85d2d239f278d
d33ad45ead8d66fab3ee58a7727f55f05a5a04a5
ae7ba4e84c2d5c7e82229b30c137f7679f586886
361ceae0db6c515735de22933257d2ea73649031
95a939f65189b682530a498c66d785d5ae5d1d3a
b2837c6e37820e5d1c9398b70a5b06d0044813d9
2c39667777597a26d12a2d468cf6946a99de3887
a5e8a985c54cb8d58e035cb9787a0d7054543146
5c4ce168f916e83db39af5ca4f59af91e2d90af7
6e4f4beaefaa063bae3886ed2ee1d9543da23661
1f847330fc2575cd9248b34587fbc3323f35c15e
0337e5c210434a9080379f0cdfefe91a4a960021
fc1ffa70104409907c3b5a9c0fa7d7fa2866b04c
0e3eb7fd1441d8ca411a06f1bf829305558d8b8f
9aa47d3235089ea4978259bf3f342e7d450fe437
04f8c304cf7ce8e65e33aaeccbae02d8c3a51563
eb952c63c7a5fc654a6a6d57e37e943cac84610a
b752b91fabb457fecb18ee16e44c8c21d7d0f7c1
74067b6a17e0562dd93c5e8ef11a3f62232f744f
3bee089f0dcbc890d173bfebef67cbcc97575c39
e23de78b664be32bcc8888afe338e994bdac6403
e76e107423baffe6d6f5a957d77be8bb6699dbd3
d5292846b8c5b30455921e0b783dc0c8fba9a59e
2e1e18cb24299bfa3ed8b26262565a9d1ac9df37
a60d03a53aecc00d6c2a58913893ff06a8c2e8a5
8aa3196d7cf4d01c56cbbf7bb23b35bc225e0902
898b00f20c5e3e566267324d3a51a950f64a25bd
f069897003096161bcf8b38d7b0dcb4a18459ecf
