4f6c21fa97c7daa68b110c7d9285ae80ed7e2e12
0ba9192e9d706afcef1529913cc83db469ee7fc2
bf07592668da9150890184c0a9b346aa3b312a73
7961c84199b420f87e1443ab4d2ac510ac7ed66d
8674ccfcd269382be993c23cebe4a72233e905fb
e745ef0645cc63e017d0a6599610a59af22842f8
2e5dd288008d4e674f53beaf8d323595813062fb
08e9b456a4febef5d4926af9f5c4f2e90f9b30c3
35862cad7ec2f198ecb068dd53980631811818d2
bd8cea644a07890f5bada18ddff0a849b58cd861
99a4cecec64552a56ec50255ea5d670d91ab4e00
170e4deee6f78a564727dee18af7dd7ce322a35f
1fb5ff15a89b133653bdd04662cedb1d9330df4f
b39ffed042844adecaf0a4fc4e9a2f53edaa111d
fed552d09de499f5a0424680e031a2d4414538c7
86ff76a4f77662fe1bf61deeec5f3e39e16d4020
0a2d85f1d32749eb278b27502ba7de20de958485
8648171abc27497d87a8b47e509e8adabd622f5b
ec34fce4310676e6eecc386d3afd840e8e2ffed2
338e1a991c5d15695bd654a7b8d2bd4008e868ae
72716be648cce725590259305e63f39f12742c7e
bcb0d0224895ea40d64d9de12263c6fcc85cde27
454cc80141172ec7c6fbc98b8e249ca7645fa27e
1039f69e53792ff58f3f61f5ab6f7b89ef1fecf0
21b7e29ea7c211bb2b889bae3a0c6c5d9f60fb01
491b1f428b00bba45a2c51d171cf819704b0fbe6
1a22c126be73b6898caea5e59018f1c28ed86b11
9e2922b04d2901647b717232ed8fa1745bdbe0df
9ec3411c91bdc50e78f3d50b393ab815d2be0f92
1cce3b1ac9293940a1731ea31455d538631b6329
fedcc401966e26296baaeebadd73fad9e0e88ab0
cbc8fc4428e227f01adac3e236d4c1efa89fd0f8
3f0f322562699a65b4133fdb328075da6670bec3
aa032b8aea688b62d494056b900ac4f833048b6b
dd1785ba66dca72a82ec5e5d2e63498f1f591db0
1748352d98af81b195bc867d8e4178dfb2f5b0ad
be26f4e00fe1c7aeaec0356f4f16ea643ca2f6da
1b8247428658600a6d976aabc56f1382cab6c602
f8c1f350dbe6424036693bf5c0a62dfa39512818
4596f9e1397ffbc7d1a68b670e529dcf3a5d6036
18b7bdff12afb3dd6c6d579d4ade7159079afd36
712077cdef050bc9aa211d301a1bdc3e763b6097
9dd1aab482fedc627b663cde10ae75dbab66edf9
93414db1f3ae2f0915640696122310d736e6d155
a2583d0d3ca19e54ee581b32c69ef4a4552ba185
a29532df43c9db08db5dbc83f30bb7bd2e55a596
ede7251ecb50b7b53a2fdd8a5152b2327e1ebf14
385dadcfbc9fe52c63acf3f97042a8774798fdce
507e0a05b5685f0769174cec12bc92bcfc1f6dc6
60de092e363df9a2f514e77cd409260f0dfb5b31
a74fead21645066553d41217636a94efacff0a7f
c8ff76ba914f9ebf026581d8769903c7dda58cc9
b5a27745028c9e23e1cdab30bc8c2c029bb03378
e01c4bce08b9f3c389aed5f01c1ac985c83b51ba
0c79fc8b63ab3b4503c684b127c64800acdbddd2
c3c05e85701c60c46303f1f4c3b6c65c64a56ad7
a2b85a306df8b02ea2e6f222f56f75355660582b
b36f75044f5e2d7347d8eb9ebf229ababb3433be
eab849176b734da0b11a0055ec340b0546f5fb31
c8daea3045e4587a893a1b170dea447efe7becb0
1725504a37dc8c1cfe69bd9384d43da9aca26117
452abd9b51adeeba2fdad8417f94f493e5bfee38
c68e85b749b5433634dab59823a9748cea72fdf5
154d6e87f6befe1d8bbb71cb58a6f844a8d4f051
a6e6a9151f09e48d92ed96df9b3f4437d78856dc
1d5b7be3a7e01b506f0b56cd58902a14fe7d9025
57012dddb45b59a656dd523089ab0efdd204c452
fabc6ee1bc9a31b25e9b1adba8c9521f6ae28f43
a2cd246f00a5a1332dc9e8c6f4375e06bed300b0
bce0784e5eb72c395eff3fac59152b65bddc2c7e
6fdd7fcddbe964b2f30d7492a926f4f0bf0f083f
d77bdeaa7d8020d2d8cfe6357f4c824dce3e99f9
bdcad8ef47b349500755ccd7bce34cc20b8281a2
36c12a4c55a4d19f830ca0df2e48fa43b052a2fa
a564b70d51d7e917d7d1af225fc69a535b3ceaa6
22b2c4c3b8be75ad3ea97f115d1bc56fa46069d2
89639ce322182dd83206fc3c0b7caddc53413cc9
cd689ee775294178e168b0019f5c9e15272f6632
38524ec3e29100520dd4004841e6e62d7c50ba3f
804e1fa9ccf426603e6d478f63c63bc00baae0fa
0f8ce1b2847b61efa39b8f41807dc64b0c672314
f4cf674f01fb8253f86ab7f5f18c37b49e3f758b
48c45cf4aceb1e6e9dce8a0670af79570a11f369
1cc692dd7de54bfffa05813a90b14670b4eb50d1
91201fb338b29727b18de734f0bdbb2a07458f45
3a4a0432d309dd17de86bd1cf4742030174fc190
a6f807dd683243aa388aad0bfc9fcb20f3b1edce
fc28bccdf19ea9d145f274a87002bdb1f45f840c
652650e127dbabbcfd7b41d4bd0991a7ad5f87ad
ba594bcf4a62c47810f85c6d28e87367c6903ed4
4d1458604ab3d378192c6240dd12ea85d1223838
1b6e47ab2be03cb0d1cafcdf3862ed6591636e7a
2ab3e13f08e8549c6957aa263390ceb36539b999
f4bafd4fe0a9fa71452d63eeb5cf9e5be2cb722e
4a5b61fc13022d0c2cddc93258f303b1a4948cfe
79706357c73ded02615d0445db7503b646ff9547
2bb9f64e16dbb5cbbf691e284a97d745378a7b8a
534de73d284fb27c4ecb83a9b3e56443b737ba59
44d3753c481d61a83097fbbee681512aa8833da8
77ec8397927e3ceb9b9a447a74e718f625ed9976
df08467d7c3589a83411bb99e1e347b666c5241f
8186c9aaeab240dfe500eb2d313467283522288b
301e22eafb659a09be23b47ca158c731da0b0f6f
092073893201d515eb2ee375849efae7cc9065db
7f5e77484caa05504b4e6c4527ac7bf1732d01c8
fa4e28ba1ca4e81aa0ee4c756b719802e77d9817
b1d4b2af1c189666963a3545121cbc5477e3c394
370de7c44652fe461067e1ac64c38a1014584ae0
9b0fa2f668e8abe2e6d883d4edaed1422e81abe0
b192bf12ad2af92bba0f32c9d3127b1192e54670
1611acf4cee4481b89a2cf024ccf821de2dbf13c
a4393831f0c95e4b89812238b9ac26ac4322e451
4b728cd5bc53195bced516f33a1ea0a0def5604e
583fc272f26373ff5f51c0871d9730370cd39a3e
a0ed6ec06ca605ed39b601355daedace93828032
437849bd93ccf83782f7081e0a76e88277064758
095dadcbec7cd056ea1c0947d57d9084fae6d897
dfeb4b15b587bf5298555e969a01378853efab8f
3ec29455af9642f6b20d7a309d3b6fb19c49b819
f874a37ecb70cc15dbcce3d9924711467caf508f
587afddb279bea3fd0f64d3421de8e69a35cecb9
bf8cac4939ebad0756e39ad82c756bccea9c650a
f40ecc3f1076292bba2b4c33fa003c1be972df00
73f23c5faa967748bdda826278ac5e63f715ae09
3e6b54bb59d55d4d375c2e97157d34969b7ede0b
1c7125750b7f8205c263f6ec730357742b25d222
4afabd3f3c400109b82951e8bec95753103ea915
b640797de17f1afef26fbae778fad13d6b93767d
e305488c5ab9eb29abfb65ca103c55a4680f4c72
46dac128f7472f264e3cb53e4d1fa40f6b043034
336bea9dc541413be4cd961417e2be456bdcac11
61dba95091d96ef9cab0e95f1a9277a8d19d377f
6ff48dcbe311d2736249b02b31a8745e719d1304
f3c6da32d79b1053ca4667191fa7a660a457b44e
2b4f6677917cbe4121c2b748ba7002f8ba4bb8b5
1cf268724430131ce5c7f4c2068498d429125ac0
661bd8682913e62a25a8952362daff60fecf12bf
805ac002e679aff86d86b7001a7b958c98670704
f2b1d9516498b403d88e0b190e5266b8c5d33cbc
3c8f4b81d7c5dd7ac0c221585623ccf5346380cd
844d804aba4b459215f05c9ade59157f6c2cfb4b
a8bb9dc1802f59a3a97d555e245f0b8826700bc6
73e8122fc1d1d5ba1b913ad5df377067cdf37242
7321418eb550ff5737b11acbc2843b29b466e968
92b786e2f33a44f16be224305fe4fb716422b14a
dcc39e5b21eda7bdd9563ed86253a693923f6432
dcb828f02fd69aaa1d77b70d41a2a1c4799f2527
17e1a26d64fa2d2bfcd068bbaf68803bad949b42
bb1833f22c1e43cd5ea2d75fbc2c5587d062ac04
ad548a6a0add6a98723cfa119bf2c4c55b75a367
06da0ceb64fc9ffecec5611aaccfb5db19a299a5
c3298a3836c244c94fae9a9cbc1598ea3820d357
aa8bdb5d6b7f89d56712c2d177c27857a17d79cd
282aa35682e9f610f71e7f08220131822609f131
15611dadbbf8f8c217c03ce33da89beb54602023
de9e666493469d40fa9107a78f9ae421a05f9cf4
379ac890f4dbec15d19714711f85455a12112c3f
cc336ef2f898db83de46e8d48879b03c1a4895d1
d9d0e633dc69b9b93139d822eaa17b97ff3826ab
0b0de76adc4e564607964535c2078940969967d8
b18a201d02ad024aa5f37eda7646c96de4f64aa0
5b4d2d9807303a0ca27d3d481c0f4afbb43ec50d
0234878c4ba0999a464a1acee2983d6cba9de940
8be9a63c1c4beb3f43ffcc3ea978e67f138b5050
e218759c0c36b78ac8c5a75ffb37c610d4e053bc
348745608faae89c33d5dbae40be8e81b239177d
6ab9c177acdd87c7fd0a10f128e3ea21402bc05e
068e64dbcfc6b3af30d218a12d6145c0881c45d0
c5b5d363601a0d9ae294034c1e68a6de54a0958f
d141ba11bf0c8df8c1b36f65264abd486e5a276d
08748344d852a07011be6e74bb5ddc6dcf221c45
96f52e05bf9f9cbf210bfe97007ddcd690e394ce
e5455d31b3cfe74b5c6008b68955a10d7d539f9d
24263c2bd80f483184b2e8593f2aad1f684e94bf
c8a23028adb35330d9bb8dd707b2bd76ee5b7957
b98561552292240aed69b80bd5bc1cdca67a9137
6cd086050f0af1c81f8155472cd4160e7a185718
82a43727c308f2401468d4306c1ba2b5095f54b5
270e9d66c5a422b007312cb282097a8cc9b1b091
3c4dfed08ae2ce300f6ac1d0794d42a14c344b79
ca9d1658a00fef7be53abeaf499cb78bdc3a5017
0f1a2ca5ae01edff1f5ef667122b43f581ef92f4
5643cc6a103141103ea594054d1d4ec91140a6f6
ea1cb20c90dde394f288cee5e8090d730d5fafbb
9cb858fcf6ad55ec0770f81595f23ae04687f52e
799350c369e68462b61c6aef97db2a33ea937434
34ff9cf5f246efddec9da2994d039cd40e896c5e
c663a94359b70069b67b8d7f7bc9d0c43dca7674
bf0beb772c83fb5fa2240369ec7602a65000e089
0692bf1b6a6764dee22132630bef7ee2f850771e
dcd322dda2dfd1e0567017d2e02c53728c310032
4bcfa07a7d8baae64998c97d4e35e3333dbbd727
00bf06e97b96ce98cd707783d80fac38294dd1dc
6036b3f6eac7b54562dcddd3b2b97175d041335a
bf08ed0b93e54e8e21f23e9d948fd2732dc52171
2993760e9261f046db88a0e8ccf9edf4e9b0acad
1f6782894a543580572611beffc52621381e822b
c0cd3db5b12d87d76f8c3372c5b1026a6fd3a4da
22ccf6c7b1d4e4bbd674be3bc79d5e0e545e72ba
0623c6c5334bf43299e835cfcf86bfda19e2d4ce
634a8afa533ca0efcc49242681cde581339962dc
e08a3b1f3570c930592540e6391bb52f2f2da7f2
5de4029b43cbd6ab257480066d655008a573371c
b2f7e8648eaa1c18ef6fb7c1d60c6bf1fe77a627
847359fd36c28fa360090459d1243a9603e47786
84ebb4c315eb741e9ddc848422cf544706811434
667cbe992314c28bf7a8cfda353874841d2bc91f
d688e35e70ea307759976fc32d177b2748d0a14e
f4c2c1926f47e38a9d6156af1e651daa79ea0e0a
640ef615be1bbf48f8506151518c0c55065e7f99
2d113315917bee1991bc2ee409287477edfd8fc9
2fd42cfc6b32dacb812c6f2ecef8522cd94718d4
821501717ba3215a81863ad1c329ab8cb130dec4
b701da8d1c79b4a2f02e3ff2d22a31f1bf084d00
d771526f8cfe262914ef40f0613e1e4b9e3a3aca
3c5e677964f3bc1bc8588a60116b4c35b6225e72
2368f238ad75935f68221f35330934c4ee734ee8
c1830c8b4ecf15fd3f06787e333dcd3b775dd5fb
0eeeb764391490585f690c8b424d9ce2d43e6a9b
3d1133415179daab602db1709bdf01d7a297e9f3
c2f4daa7398a9363fde8e51bf52c0d0323f870a5
39aefdfa06f89ae69cdb42481bdea2194ad2b62c
f70757da2a71db93c3b2108cef86d8a45ef67c08
ea0ddc0ea2cd11071bb960c7ff1aeade7bc1c1cb
4e2530c171edc98a94ea91fda1e988963b0cbf38
eb4d317b9d64f3945a209804fec4c3fe695f4f9f
886a7aae465cceb5f90ede01d98de31e35ae404a
782b7bcf4a1db5f33078fe8f7ded8059770f7fc4
edc4842309ad0491b7f2088c8116318b3d680db8
4bba7526e2f58018817972f38279cc232f519100
c4e96d010e3d16810d7130c93169817b3d72b421
e47da7be778ec1a56d06cbdafe2b8af1e3951610
b6099bc193368259cd7db1ae6848ca410b571086
23f033ac08906b8db4dbb5695d6f0701ad14e4d3
cfa5b85075f9f3a74e7eb46e344f44775dbcea57
0b939a96cf5f87686bfa3cf16a47a44632a9097b
f010033590ab8b9498a9c486bc8f9c21c65fecac
01af0baaf7ab2da23ffbf46b2a35cbe11fdbf494
5bb677e7c2a37d40c7dac6bb770df5915cbda90d
506ac2ca71ab44ebb8db9441da954422a75fe251
9b6cbf8ab1b3cd651e9ad6ef19af21605f270dac
4a5340eae738058263e9cc232a5c3172b9eed90a
e3fbfe564178470f4bf52a9cf5a9944d321ecb1c
9008e72c2b6855d024db54f283cb627bb322fec7
515f8964b42dc34bd42cf0708a11147e2279076f
4477eb2f48199a4940dc82e48dd8d4b7f795b2ff
4accd300e55b9f234ef5f460a7f4243bb19178e5
9bc3e56647e4794178a721f2d06128a4ca868b79
00f74b92fa4e10e26ea8b99f2bb95681085a3dc8
b963595988d729e83cedddb180a5e24085b9e494
f73c4f24ee36c671562840e941c914f79566cf97
95ee705e17d5829c46a99a95d5cba62858d6e1d5
65dea8aeec2055432de7474dc46e001129a2498c
b2f1ef57c8ad0fd9f4cc2b42f5518487d6771b98
a4d8f930af1f17a6c48a9abd94f49e5fd719fc31
835f901d5f30fb125672cfd8ae32061e55c5b58f
d315f1b3ba844f510423aeac30afb1e647a9949e
8d4cfd90025cb54cdba4037f21e9b723e1e098ac
328510468c3da0f6a37d9710d7723f817eff8ce8
3a33f5eb9d900d9122e9d769c4ef238882a9e66b
c735b3e14762bdc45716371c11e65366ac1782f5
64bf1674238c62438136fbcca69f5c4dd7ee8193
009680488e73c0f65eddb3c2465ae092f0a8cb39
b0a5d4c266ed4117282decf06dc5053190423230
f3dc483c990364e62b66e8dadc01c599a0a61eec
3613d15bca15727a4376aeadd9966bc8f4f50a97
804e058e27e16e346b565ce4490f6177574e267d
2562ef7cbebe5eb4345cdde6323aeb0113c3f86c
73c4ad5f0a233844aa8629224c46d758a06225c1
f52b07dedee99c0d0cf08a3b6732d56290185825
ee0897a1d9d80119990964834d62f906f800afb8
f5eea4698d0bf3f0ce23ea07cad5c8474ce64fb7
8f3a5e5b18d6e27281e3dba1d41e352065b129ad
3dbbf06e9bb611db6beb3c65c00204935c7d71fa
fe569ea7a31f2a85393eea1bb4fd0b648a0d5a97
e847ac0443ea1d7996b392d9adcfcd06e4094b78
0b8a647f4eeff161f7914afe6de2eed8292f7dde
af7b0a04a03f5e93a7705b40df492fed59bcc2fe
bbed330468b5b82c9e4defa59012d0fcdb70f1aa
339b512e70caa562dc36aae769ac720c22d91699
79a06eaede237e28ef72e9e4c72c9e8615967a87
f5d58e2e1ae8f3eae8e69fb67aff4544bab50ee3
26a175cd94c50aebdd3bdcba8e3cd0a30f664870
da46928950c3b5defdc7e871614c2dea2d67af7d
55dd7d035fad00ef8681b0007eade6232f832e3a
8fe3c83e4ca9a64c03f5adcb9f056d9e9440a389
01109dd63513f355a7c553484b1e666b49c7c640
979dc3e3e4b3f95d51b5e5c471f2f1ab4648a8b6
341a235fea2f11e368038a832453cec72246dca2
30bb3094c16f8c3bf0f570f34f62a4a098cdb9b6
15711d938dd7311b54b744a9ef98e0e6bacf32d3
c745ac0e16ffdbc60b6e96fe01947a1da773be78
7db9f454fe34c9f0136ef2d77185264de4154d06
7c734fcf7387eec804e52deb1c61c50a61b67601
7d3ca7fb923e7ad5aeb6af80f87fe816286c9e13
2537880e5d9f790b622a7268057f91d8599b81e2
718bf2fa459fd6f79a3c06d835faa180ef9604a1
4652223dec1e4cd9f9a2978e4a0e6d4086c3b24a
abce89d1bc609ffbc42275ad0f062ffeae4e98a1
a0b28d6c82abec5f953e6f5e8df829850756c7dd
32cfe25132b7b83ec0db3ca03dc51365827091f4
c1a3cc32e7e8d6c02308a1c198e00a8b4a7bf191
84e281ced9826eb5331223209c79aa88d4e7e15c
d0943dcd30b08eb4043aeb88fd983bcebf8c3432
ea3ffb85368ab135087debff003de30aee7d9091
8033faa03bd3b46dc8c337674126883d252483d1
7d60699a4951b4dcaba4cb06029d4432a863b171
7fb475a2237e603767abb8bd940f444ff28e212f
4b38b72a0d789a2e812bd11685244ba6583751bb
5eab79a464b79683114f2dc9ef1ea87d3e6a8bc6
15f3b69b9e3d7b0d61ec32b51cca37f962dece1c
2c390ae66b42fc7f28e3aa3b5f6eebdd1fd1cbfc
3d115349b51f86d7bd3506b0c079f8efe903a820
e7b7b77efc6e3e8ba99cd7028a7f51ce938a87ae
42419d918d26fa33c4a000e927df32b081eb73b9
b26652a934d8e75d36ff14ac9d7cf5665f998f90
8d499a2419e616342c6076f1994deba87447fbb5
6e840d8e62e98590e129ab6f21e2deba46bfcacf
83c349ffa94d3992c4ee511d3625afc0c97c12bb
52bfaae1a023de27d6c84d03d4db71ef7ac46d39
35771dd1cdd20e291a4a1a15ef04da57329c41db
3d7cec63769b32ad323e86d168a2e1237667ff32
ef8dcae9afa672d6081f343754de577fd8e0f689
4095cb253aa3895d0cbd1e0d9eb022fa0cee32d0
4a5e484c5a833a4611779fcea0a7457933d3bb83
f0f0b69d90be9eee51434a0c9abce0db5c2b66d2
0f91ad841d572c5b9db72802e5c460e85fafe2da
0f3d47199b95098b04ee774eb2730c2812bf4dd0
19907030d105079fee4fe6db70431f7f6b928149
a06708f81bc69ae6fbbe2638b25e7eee922f5efc
4d6ab1d30de2fd06bc7544ce6301fd6b85d183d7
b354868dd83fa720a1956e3366b5931f7f5f1885
e8850072e25cdeeff9443bbccc63d20fee81d516
d4a16659412af852dd849b0e87b46779d9541fa0
58a038d398f85235683ccb01cfd7fb97c35ddece
40fd9979203dc393dc44a46ac1c0ff23a3bd3475
ff11fe894d9cca5a52e8381606764935e8b54c4c
9e76b5319ef9790d8bce27eacbc2aff4ba312cac
8b123a554608aa677d1fe30af47776bf6197cd2c
9ae155d25701591697dfe8b47d4b4b592807531f
6fe0db4001ebb9801705f6f3ca8911ff5fd5fe1e
5c05629da1bc9022a053a7dce697a1b33b81bfd4
07d0bcab8cdaa8f4d9ebc1bcc5c1ca4b2f765a8b
1bee71fb1c2066035a6afcba151a1515338d0db9
e7af3ee9709a7b7ce5373601f571f94fc4aa5fc9
9e1e4f79c76f39c8d6efccbf8351e7d13ced8007
bc2559ceb1fba6b1f97d99494be90e83b3ead6e7
1b0adb334be468c7148dca36a26caf032bc5b33e
78c4bd474e9b67f40536714a028da5091a98e81f
8716b9d4bd5bccd98187718dafbb2d6f3c6b42a2
0ae6f172851345b02fecc6b11a7dfea1eb60a9d5
f90032933df8b27e8542fdeb40fb6381f2062563
6ee5341cdfa397a7b2ca123b0f8a5f3170133429
79bc90be3215509e98a86239217226572e7887e5
475d9011313ce875d2a5c48d7621664320ad413a
a96d52fe66536ae0633e1a066d4ee008b3173f8f
e4cb163be2dc6cf6bd417acd62d3cc4e74f7473b
b5d90388eaf3725757bc0c5dd7a0fa86ec0683ef
ee56a4a5c6e27649c0ff13b50e1654016ffa94fc
9b171beb92ce759e0c4c2dd7ddbb5e345a789e83
1a2162ec35c6ab4b4c93d08ce7e1627cc1d63d50
e8eda1b99fa0a1765e590357e2b0b4d859d4aebc
c1f3200c872c502aa141eafc5cc45fa92b37ce68
9dd68d0c3e413dfde7c0cb8ae94ee2998f91b4ec
0ec34b5f761f88bbb88def1216f5bae64a0a2d4b
227e67900e35f0d01fbf3f4aca86877aefa52d79
64409ad10bba16b150169b9afd88970295e2c13e
a4ebdd0eca8dfca3d9eaaeae9dded473cd1542c5
7cc320ce47f1d346cc46cf68022c75e9d15b22c8
07d861c5ffbbbfde18ebfef12e3d57ba4dc2be42
d0f3cd383d2bdda3b55c3f071fa5622f65928f73
c9364616c800553f4a98bd11c26ef61397a11c6d
c068ae8d84787d618e6bebf942af50dea2c19c16
d93f9062554d07eec6d376d85d886e40b6a907f7
8687475eb77e794ed56e8285aa0dc982d93a1048
b7e947709ef28f0e60177f99298ef137ea46f18c
d5f502d940fb5a577fd9c55463ee675af44a3262
81a913ced197c2a1c3219ab602c49ded9ec195e7
2f8bc24c622790e94181d19cd054987a1a4498cb
173ebb95385ef316700d71f8443232cf4feed634
acf1b0f90b4ec934d27fb52ae965ce8e47f944c2
1252f74528fa925eb0ecc5837be332b6df36451f
e556958abc61f487ae2d3a7f1d813f429e9f0ccc
e1bf9d625762a474fbfa9fbe8dc1ca55cff6074a
5987cddf7c9f7560fed1e8dc7a0f2835acf3735d
5498fd12dc8dd42a1a76e3fd62d05993fcbcb3bf
c8fb2a84c58d6350d7dac6bd246bd140d0e46a40
73f472b65d9982997efdf06c1403b73c9460e795
e59ae12b4239b08c000bb382cd1d9068fd8a8fea
052a171a522d2d3edb80725b00a049eebd4bede3
fd9ca8bbb3bb5478aee79e633374abfbc9b6d6c3
9d417c1626ecc95abda14d2a48fc54edb26e302e
6fd0a0c55f1cf721c88bb0df957b2fa50215724c
9236a8d156b2ecef2f544fe45df44a2620b37951
623d9d7202019a56457ffd02524c70ebc86958f2
0d73907c581e42c758c4c8286f87ba00b106188a
d7cdc469bcb9db35efa1dba11c9e9edac2901527
80c59864cf290f9509d415050f5e0229e9b540d7
8650679f2963d63d0b1ce26a42da95c64df54e56
8c90d602d7f02ae36f1e93714006c1af0bcfbb87
ba6319eb6cfb41a67951f63d7791da4132daa823
b39223e295e1d56ac3e1054655ab0baffd0101eb
391df0547b83099a7f89bbee9d986a98ae387e8a
e1e8a59ad9f01dbe52f5cd2768f2c43225e95c11
b169a76d462f346900c8d87f0ff5a65ce2d0bf5d
e72d04509f7d04d2a0a0e96cc5555728ac03aa29
9bcfef0f10694260a0c066278858b1c528f09ee0
311532feb01d0c635684f358060fe562ca2d8b01
0bd6acc5d81672d5d05ee6214b7c5d990f7588b9
4d79be44efd9de6e582712033fc1f12d6bf2862b
5f59591a729e31331aafb8a0a40cb8892ef3f1df
c7b164b4090b6675c9efd9f316e339a6a55d38c8
70e3d17620061767ce06f69e11a370fb61d69d08
9f5a3e553cb00d1763483c7194ba4c455ad34eeb
08d234cdf0ca7a413e8e8eee763e6b0dc25625b0
1a5254b5976808a1c394e4bc541d49c434f3fe0b
b034cf18f9f0696929fb52dcfe42b851e2560528
c6d61f9b43d89dc280b6089dee674daa8c180146
9bf636076a57aa3c58e6ca7a4a465bb0268d944a
61dced3dcd19513c3b4785c2d40e3c8051c74ab3
a2cd01b32bffb6fe33d34362670c8bdc4ff9974b
f6c2c99efcf1ae564bebe0ab8f9f45391bb548f3
e71e40057f7a6adeee8267ce612ba1df22484a66
3c60c9ce32eaddf97d51d46b26142365a8a6d96d
488d9055982eac50a173f13d1001553610d4a553
b0a30cbf3952ed3198826706d63b817010e0d90b
cf66edb3a10fa2bb60802e91f14565b551c08f97
60a94f0c5fcc5ea34f1ef048732f779b1afa50a2
5e0ee6c09522ae573ef03b77dbd609f3db4d15b6
9d70cf33c2ccea42d0fe651be61b2e0a6579fcb1
518119d7c0f1577a93449d07d1ce1401c339ed6e
31a6ab9b1d957461ded25269ebc0d8a92a1cf194
abccf184115129e7f4eb79af6c4fab0fc19ec1ea
f467d695be2ae4ee7d5c2978191e1415aef37a9e
62057f73d6cda6294c44f562ba0ae8bde1923c96
f3fb77f4bce9d11d7b54878e91728674f6ee5342
e48e6e450957868b239de20a588f9c19f06c7f3e
221a9f50d4a63d12f177cf1d25d9d2fd3c9b606a
05498ee938565d90cb88ba096660ebeb44bc7fed
cc7ee002dd7e92857efc3c3a842ead22e16d1b57
4d02c3a040d47e240fd9574bb6dd48b15b9b7779
d5d932a7399d03b811781b08c23b16c07851ad78
3ae343b768bae5973a5634c8e287ae1173e30248
190cbf55e435add782ee2976f40e0e7d11916895
e5d01c4caf07c941199d4531eb8c251664b49ae4
2e509f7bb7a365741bdf79948c51b5e91fa3ce0a
44eeb5f6b4a59b64788f7cfad9410ea6ae71195b
18abc6d8937773895ee38a3cfb1fd9003f5e3f36
2ebf07e62234d02804a6707957288f4292294f16
d5e67032b50cdca4b018e37e16d7071c32ac15b5
baa5990e34747d5035251da96b036dd648bac57a
d5963e069dacd757697349ab8c3b5e0d808b54e1
88beae6838c6144f41fc6228755908c78e446416
0767da12fb3f3c9ff169d7c055c87fea3c78731e
068132f1eabefb1760fec5b53997cd6143995a29
6d5c38897ee42da732f082252aa7f1579719354f
d6016b7be8ca012b2da5ebf8c08946de7da7bf75
01bc2d6d80170b805281109ebf27ba4826ef021d
237b393a8e7c7f1812ccf2c9510a205fe7772a8e
5bb1377072d762f446048943f201c68b64161a30
7aeafb9c09c55a001b92975ea8fb895554757aa5
4b83eee1338ab018b802c3e195317fa83f785154
38015bffa7a58de07186bdc9f98f0f14ab69938d
0a452bef8edbf023fd950eb6d3875acaea553cdb
0bd89bacea8ea4c845a9f170403116c59f3a592f
abf7afca760ec43f1498fa00dd791170abe47e49
b19a12b952398dba12e46db452f0b8220d1e0267
3c6cbd40e297b397abe6d942b3c7d8f31062e348
a9577c0a4bb1cf4464d8d6b17223df9748b1049d
bc97d7d7a17b058a7ed1084aa3aced5fe349e86c
ed10513238c271a2c9b372b702dec4943b64f0d5
0ba4d32040bd4505a6791d78851b12299f4c5eee
70541eb72f679a7f8c37389ac7fe8e80f65257d1
e1a53e61d02d195c952b2eb723c3275eb5989827
392fb764b6dd4cc05b3dc8f2f3bb53eae689b868
04dd885421918ec6ad1bdb252439876e08d663a6
cb7ab1f6a4acb2e3c27c10f46469bf5ef146ecd1
85fecba770d803c1990c07ac9aed098585ef0e90
8ed4807360371ed81bc40b62394b01dc2bb9a7c2
1d344f488cb5b3adb0630ea9a000b699fb76c09c
650bb5358de39422bbfbb455e643d1fab7f00a0d
268111208007b1336dc1bbdcb0b9c15427e14e1f
cf6eb70f936497c833d357efebc05157c0e59c0c
699e6e3b024d4e42f11cad11c080b33e8ea4dcac
4f7632a853639cf015936a1c51412936dcb1cf84
5dd48cf3fe7c197a541a425f4df75f55dfffef5e
0bc08515699dc4b385c0e2ea314a94b82c01493f
2a426b3d447c2a0a6345b6a2bb9ee384f6266a3b
9b2fede68edd9b12e3abc8421c6c484339d75042
23db94f5a1f6f70db273d53a18fa1c03f2b9545a
7f92771496ef59eaf6fe86b516f5a8abdb38b9c0
54a39a94aca1c68d630c641187e135fd6873901b
46576fd2ff8f7069cdaf7eb1479bde7fb3811c74
70a91c72c418147728faea34cfddcbb41b5a4c24
96d596802b5ee06e0bd0ebba63b441396a94f696
247d5b1bd96fc1289879bcd7af54ea45b939df27
07fbff351308dd2d7bc7dd3ceaa1207695512f60
4ce994dd4fe58a03fa25b0911e5b3a2079b33692
9826d9bc1ad80bdfb4ebc22060fad3d3b4a92e9c
a7a654c82f3eb1374001032a44b08b6b105b4992
232e529a3b036dccd572480ded7974ce53f6d416
eb415fded66b5c825aa2818f6223eb8a6480c024
f3a2c22738c53af5770183ff8a60a49ae21f62eb
e1787e68768816583f11c9ccebd6beb439f25e21
c811d50d6187e51ffbb8d07feac744a8b77a97bd
b9eb8f0e01f96e957eef8f57a1e865aa08744c86
0b935b85ce1cb1bc7af7e8b73f27d2f858061321
9839990fffd557d617ae4a97ccc0a931917c07b9
a6b3fd8a72c1f19bdabf901ff1b7e01e185fb5e5
eef2ad7cd2424da63f83052607a232eefc7c36e4
89d4c50c300c8786af254173d307070cdd15a844
a25c585f39aefc9cfd45d8190239f3443e729c03
8988b3f4c0ab891f31679d97d48dd376b4bd2fee
57f48e0ec84f1d2b57dd134595370579aa2e707a
9572868e57d49f257ecac23689052b2df45be737
003f97168c87fc350b6ea63405dbe98885a102bc
6379075bb906e0502815d5c9c61ee9186c96ce3c
2c9d1dafac30875074e80bfebd15ef99fabe864d
5b3b48409f48548b8e96b59eda4e156004f7157b
bcbc23913e5d705412c2f2f47ddf8159aa1b002f
0ca84b3527756ba55b31ff5d181e65d20b03a5e3
52232a796854988af0d444ca6a0f25237996da8e
88c273364df04ebf53c2d3fbbf48916180c2159e
02643e41fb94fd216ddced121fa95c6acb43270b
9ee51fc4c7be58d9d937959854f86ac58764538b
dcfdad9e9ec90a4b90567cfe081a3b802946912c
1aa20e860953f66c42858968ffe56ef95e2df4fd
d315bbaa1428b5f946cc1609d220121f8be642b9
061d5bc261f8167f5a4716e4d100261ed17a6cf6
486de44680c6b266e013183226976c6081f41535
af2682634857281157b4f372a8bf0ee64f655978
23d3b842735db25c775c15b2fbab652848f5cd93
d5fd57262b9877a0f5b035a7c019d576ee1c60f3
a9ae80fc8ff2f7d87eea2ad2889909e910572b8a
8e1007d69326bf2394e596e349d75a96fc006c6e
8fce6316adecc577d4b19902d04548feeeb8383b
74dd295e5964401ce7d281e1aa9a66cafdaf19fc
a35233a4d4e6a2e923f81006f00cb79f598bd2e4
77609cf6ed78325ef8c308d6fbc0d045596e46eb
750eed1804515c43e1ba60d8a1a927ea745424fc
5b2bdd844db56079e6cb75b0e1142d337723e1c3
9734170b7dcc0ca0f5f48bd250819c2fca17c564
ae9963a40cbf7714f3f30e0093ff41f2f200b6e8
07024a4e4b6c0303f893c9d5020a66652a037f7a
2e2abb0b74104662aee76ba532b98e4ea99c2bbe
b83df4c6b36557d0fa666956b659b7c5d941098f
dd429b249504b8f7c3caa3bcd417696839c6d328
dc9d933d7419a0513f1bc84bd3faae47391d7a48
53141b04a87261de2b5f79b3bfdb9d27e3eed90e
89593a719bee31b54efd7f18734258d0d8a8a423
7d8d9b2c6e07e7f0b7356dd96170572ac0412d0d
c75783abb5aa3419039c1736bfbd150431f15eb3
8b0bc7f33dc4a303916a08f414cb5815b3912181
81126ab42973bcb53b71621d750b600fe0bdaa64
62bbd4220a977e02d8c2d16dcf7a3eb1954a2861
97825598d2fd0df54f0686d6577a162e7f044b80
a1974ef35bbf01733a99c81d52fbeeb2709de073
d0b355b26e51d517db77172668b7c050e27c736f
aed13ba5ef908397071a8d23c63c13357145efa4
fbf1bdbef15a21aa31b01119003190a55e88eb6b
3c6bc0b4cbb1f5c87ee70186c3ed85e714c2f585
d0912f27091e4548466df81f545c017a25c9d256
79195da0d7f6bec950aa148b9bafb69b4a8c0abc
c4441642bb26647afd64f9011644c4b904b03505
d2e385acc2afe12f50dafd66385f63c4c6316e83
5f889d92a14ab6ddb80903988b92c19766215737
dbc011c3f40c093057dfb9fd1cedf4bc783bd250
56d732d43995b31d1ec040007efd730fd18aa1ac
4b4f4e619e776e661e439ee6f6f89d4f4e123291
5275f37ffb942b5ccd8cedef009822cf9cf7b486
bf85af57438b943a0982bc67087a747309fd6730
33b9bc02ed7f08959c33acfef44323fadc1eb23a
3c21b1cc4343b4a95c59dd197d0a2d50bac6cb83
a368f9d12a68873241c240f1bf06308c97648d9e
32aab3b0b321be5e050bcbba540c81fd661124c0
cd8e35e95a859fda654e379250a3dff9f1436b73
f67ac5e46df4bcb72d30ed8b92af262709c949e1
371f8066d2502f6c6d75c5d0f80cd25e19b5e58b
4d60ea2aeb1071bebcd6471b550e6648a9fe05a1
984b0aa961b21845ab92cd2cddab3f2ee354f4f1
2a2a21ec59e4903d48b7f56ffc78a9f183e99813
a852ee41543ba4fbd71ac61a6f7eec7999f7f776
d1b90774bc591225688902a3e5209b6509d74380
eb27cd279c2f66bb785fad47ff949350d486ec6f
08c1f55d3aa572f60a7b2960ebd286a2709faacb
5b2a01a1969fa50b6b27d87967f4ac60776a4e20
d0f3bfd4cc81202705857b4bd3ba7a3dceb7025a
c5112ed55210afcbb263397b37c0031983b883db
c7825f63c0983c3a4d8858f9fe741940c663006a
60a83fc6ac66ab6972dedb0a24c36c383a8e7940
cdab518562b0db0c19a2c9ff7712c8250c6b7cc7
2f8c13e85ac2debd1f6370e7007d700cc434d042
27b67e981e5fe82820ebc3b413107c559ae0a4bd
5354ccaa8f732caa46d6fd3d6fc80433dac47063
d942c13c8efde4204b88f958c0d565fa3df6387c
2a30d0c22aec545238afe529bf99acf589cb5dbb
28c390d86d4d01d35f11a88034143763066f3d21
167a685a5f3d375eb3a851d594d8a9be6b93ffdf
d547b5d51d2fb1707d2f69f8d47bc5930fdab83f
e29f8231aab921c6a1337cf3a12d1822f94a3979
8a39b9fedc59e0e7611423b3e2ad550e3cbadc72
df93b350276c439f496bde9400130f207b4a9b04
2ff06676ca54b1caf53ed73a063c4a1355236833
80f1dfaec0a8b53a9a36a2ae5e9339e48b7c7a4c
01ef614e77ec45d2b1abbe97e28d3fb6fe11bd13
9afb56c3c6b4e19e5a831961c7907975dc135feb
ff4a89b5ae315425ab3b462a21e8477aa64c8e9e
d854d3a617d6c24bee9368186aa268e476be70b7
d6ec44c871e8598a62a2a403949fbc28d52898bc
9b670d819f321bf8f58084d928ff210dce4a8b9c
20ef4690e74a7a5007468815f070a6c1f5074d0d
40bcb17bf9f6c94eb01049c470050fa02e4d5e17
2e8e7e486ad86841b40b877b5af8491761712beb
71f5bb84a6370f229169512688fde24e9746f1d8
15d11289b0406ae2d12b5e7337701cc676791a59
837ddc01d25a61e79de4fa907a49f6f225c09273
ad955fa8a488ba592f6426d714cad250a1bfd92f
110878fe2c86cf07100dfbb3e97701e94107c915
8429ecfcc410d22402a6b7ea2b409908190d6428
19422972e3f6515bfc45b3a9950d627256fcabee
1a72bd09d532a5b9ec3432bdd4d487702d70f937
4f5f4cdc9df6e8c3bf65d3f72ef7cf5a8404fdd4
397f81f253ee3fede182b2b3711cf933ca698efa
1334d34e9dc750841a0fd8a919fcbcf6479cd5eb
50e95383a30d88bf6b454832c97755a49f4e9e61
99995876dc2f2876d510141a065467c9dac236ed
f62012cba5376f2c199bd4be6030ee1147ae016c
d89bfc593e86008d0440bbcf1a69fbc7774adb8b
8afc2cd3787b72ea141b137f25a1aab4128cd8ff
fcc6b544a4cd1069ee39fdfb0d9b0bd97197b186
ac5592fc057b56c343c7c4327b7a32ae5c930cda
24fc1b9b3781434bfc4a7142a292e96993d1a72e
8c68c5a3ae4d3d907528b64ec4b3daa5512d4be6
78db65d0fb4744b26f6f47d48c58a95413890de2
738d3f77b9ae83982e3319c843291d6469d32280
874a66c8fb26f51691594f7307dcde8334295cb1
dbb21988395f49ec9257a72b1044360c71fe5ad6
ddb6e3672cce60432f386e7f8e9022bf62a9c84e
eb143d6d6ecddb27aab4047531520225ee36abee
5612472ae6a3b534b7e8957df7a05902f36a4812
8f3c09ba6b8aa6d14d83047cc360189be5d44d94
a0378af850963ec1961f6212ec32d770bd4f3586
99beb188c488296d0f6ab1d754b29e5a9d153d80
bb145c0057726901f21421b8c873c1db3d81860a
0e4c80b95360e39cef89bb2a4eaa5d3adf89ffe9
dea5c688fd956adab0b1d28c7dfccfc7dc020bae
51349352e29d0a400b0fa8a883912fba682b8ede
574480e332df7af624f43f0377d86b2c17087d75
d97f72d2c964c6dabeb30eba31112b9b40237e1e
5e69955d23d7f72ea1b3f8f4a909992577636a60
457cd2f6fa54e8d0f776f6b34c25acbfd932b13b
502ccabab316ae731e5fe8cbb68b898605e20487
086dbd1ba14c630358f856f8f61af997c92001e0
6e23cf8c92160834aa46413b0796d37531edeaa8
9840de82f0a25ed5b1fb71368e15cc8d446e9a99
b592a18cd1a963c99dfefabbb56222016fadceb5
ccd231b8f42a717964ec52876037333dfa90e200
acf7dbf811e28e8cff94deb2846a9332f9879dff
a8bc720977a794091a4a0233e4b70203d31c4840
86c4166c244f2816a7b7ea1302c3523dd750fdda
fab56bae94d0e2af869872d1f42e86c32e0c21e5
d417e3dbd042633f69f9d080430c95b7c0656124
183bfe8f9f78d05cf2d8e4a72216644c12d7af8b
71b6439c669f71150086f67e762b1dabce0f0357
a5f33f402073d1f2eaed823ceb549318946a80f2
517da2b46a41b779ebb41d4508c7abf5d027a9e2
852a7cec77ae0236ae0664f5f021b233f747c47f
838e80ed6b522cb797b206e43fd9b749c8aaac76
0e71da3082d51b0099bd6e7e22369dd7d7615b98
7e0e4c63258b3af6155dfe463d6ea4741ac48dc9
084db044cd57aededdb650ef17301b6ba9e60799
aeeb2e7bac0545d85ade01ed4e837ed8ab679c35
50b862349ceaec9cccb9bf20971fa6e202d6bea5
e592d0636470fa720fc7715c90cfbe5af632ca78
8e854bbf18a712b35932283a279d3ac99544a265
2e064ee87f372cd68aa870b92164f9c8cc2010aa
309ee68c217b4d6a5e83a15dc0b9d7b713d3fd6c
2598223d0ecb31508de2a02d7310a7eeef864466
c4c71e6d289b034e6415e3b04ea8e56c0fd11b99
3d531231fe14666e11d0ade1955d6ccaa414845a
dddfb149a5f7c043ff4d20c36a132a6f2dedd4f8
9b0e5b914875f6cbb857ed34c1b157a36315e41a
6b790f1868ac71e437aae942cf243bce9eabbeae
22494372250b737c97c4e39692a2ecb665f99cf9
da5da8e212727991eaaad8f06cce108a3d025471
95bcbe5e08c16f70553e00cc535a9e450c902f21
f3482670f9e936ae8f9007d2e6678f13793331bd
2389c71e81dbbfab3352e059bdf52d4de73fb0f4
2746688fd7da77df0e72e2a20364a0b6803e4096
39b8cc348ab1e3fefbd56751e949ab930db86853
e0b0a998870bf34faec35b13731fbb2576d9b3e1
437a9403b0af507e1303659c24b94e4c59ec2639
3373f83cbbdf86c3e6518f275e964de5f3b3f232
cead74f84db8e28b2bff9b8047ba8edce1c6b66b
06cbac922ada558e9b0ebeb9e58eb19d683ab451
8d431679d7b2d35e68b1730aa4bf896eb740bb6a
b24494abeb3515fac9c5392a14f7a92b1f9550f2
751943ed00e864f1104806c7e03a1207797cf1b6
bc21443ea904ba37f46c1fb3b9ab99322e3bbb0d
0bbc3facec1fa6c83b0bec04bdfbefc424230a3f
dd8f4bc0c4f46ec5f6dea23023cfa5fde8fb5448
f65237861bf82ca2d47abd163117232aceac0153
fc2e6916d996f6f1b16f9478c1c9213007fcbd20
1fcd19a28fbab687eb2be65ad3535d1564d656cc
47d0a85720a89b7ab4ccc13577b785b203cb1505
3444c0665490bfbd3fd100146a11736de9d58d36
f7a38815363fbf67de0ddd819119808aee386543
49587791b7b3a680b52193ef9259932b5e5cad0e
e136227ee6446777a94dfa3fc75159c8cf2ffd02
dc9537e672f931a7bc26aa90263d3dd7189c386e
3812b897e6f67bfe64f58ba0026c291a47b954c8
4116de8360f90f6709b750cb8cdc403a12072850
02703e8fc1cf1560fccc7ebd804b274d24acb1b3
b3d8c81557315ac5b5d4b381fe7461ce276a3f9e
51428004b3b4ff6267c81144cd01e9cc04f62193
2102cb062b243df609cbb96393c23da77033980c
053c512f6de708f1bb3f402cf6d911f88b1d38aa
3f7b674db8c9c2fc562b95327e089bb3603c9009
0918f3edb2192ea3845524138dd852496b655444
313365cd5c313044247ef7b20fdffd230f4a07d5
6ade866d24eb9162a7d3b007f1d73c76ef91c401
fd776274c91e338af1364b75fae48547c8214c45
54d3c99469b923b409ce1a52b6d1181984470b11
b65b4199dc8ce2032a6b20a2712caa6aa0c7d2f2
b00f8c63901369babae2009e48f6c4d12b9f4097
7dddbbb2bdc1a2ab5648e7d4b4b24d6f328eac6a
77054d7ecbaec09f52afb03823ad24b555946a10
6cd9045b969212ffb04b9ee643e7bfdc0224a1d3
0d1567da0b7e884712265b38780704b026e8edc4
51ca4f3e91599d6879f14608c83f02a079ea9dac
2712ed9cbb4bba69a8b30102ce036a0b06d41ec5
16d32ed33ab7cf9806ade70f85a4ce12f65019c6
79562d58911a827db9f9d1832b706fcbc7ade783
45524ea43ec16df1a20f3212306b8219a553e458
53fcff2eab7836bcf2be262e1fd12712117c4797
951dcc6c102c5766c7562295691a7e0e3fb87a49
c5f6760c6804b5f0dfbec1ddd2953b3c58db58ce
d7f9b1ee76320dd9fc1e9992b4b75773718614bb
e307979a0d7318c2d3d0e6723f4beb458a4dd7a0
00f99dbff6d3cc959bff65d072f2d48f18b883e3
f70ceeab58772ec99d12f65ddcd137d54b42dd9e
c0bbde48b78163a394ae3fd63f98b6b6c56acb25
f1d4f813ed6404b83d539a5f68166bea89fc95df
3957ee32bb6a6dbf8858a05f50a1acdaeccd6d95
f4f04a08c26092050ff8d0687ebc7f28bee718f4
451e91d1429c08ce8f92bb8ce0b9ad8c28afb904
c97971b53adaa07c1f1e43774fd76f2e2ebd8862
32deb2c22b56b4d775d185c8605084b33386bcf7
f76c01c3aac42a90708d3bbc665e5524b6a62778
51fa7958197c3c712c9679042c82155e56d8ed6a
9fd35d09a26e1dd060baa9d307cd69f05d6f7ae6
fb619f23947aab158a11730e00f4dbd490093669
15cfa47ad9994367edea4ba0b246a549654dac3d
caf91b9c0687bedab40ba06f596b0c2c2f1ae7e3
20894bc99e28191cc3926ae95a23f5c7d3969a33
9e7529b2f501323fd8031b82533f7a2b39796f99
f8f19d1539487078afe78c8fbd2ec1f50787b15d
48a7a21541b96eba74b493d8a2ce4a678a6bc9db
60b889375c47cfe9973f7ee39b44aeb933b056c9
a06295fe0ad72358f980d09feb8c971613793527
3049f5ddc483de1afdaa52443fe946133e121808
c79a3cdefe4ced7f7effc94a6862a0d1d5af0dae
00f1533fa9d9ee344836e9632f4be59bd291858e
61b1214b2401a31d8c23f126a8b610edd29ba8e1
cffbba94ee476b87a3932d2d5a975e55714657f9
6278d88d2f46e5facebc805b1dc0cd015eaf35b9
d5bf1a1187925f76329ec96bd4ea0913bc2d4815
8a673db92b728a668564563f6d7fb0c2664ef91f
5e4169802f407114aa18d1b4265bf5231673b20b
ed9527ba41bca660d96b62a6a42470efab50b5a5
0b175867315f63154a734dcb8520166f4e9b9702
35802207e1c9dbd5512948d1bfe33f6e3a0ae5d3
ada07cb9e0700dff4ecdc3d20afc46ea46f1bc38
81612f8e9bc02bdb1bac6f1d6bd4d221668bb559
0f6cc0cc7bcc546c124ed875d197f0333bca2da9
125070958d3f5bdf8a66bed74179b22c4bc30e7b
f478fcd3b0ced600abb3b5163f12cd10bc91979e
7f86550ef83316352d0d52c0f31836c7b3fb1506
60529ac3ee31f72bd07f2a18f869666e42a26117
a4d0341ea11140b1cfed2414f5292dffd3445dc8
4d69848aec0e8c0a9cbe327fcca4f2c87d99a78a
762adfcb69266a7ba1786a966fe371d69a1043fd
faf8b76b5a5487b0308ebe021f45461881b2c568
7215c011ca1527f79d725c111b3c8ac1dd9f6424
5e5df6bd09b30b11deb2d8ee7b12b949636cbdb2
fe59ab1b9c1a5d69056a6b0863edbf98dc7bf603
28b8573b2a50d58e0e350cc9ff45981a5a31091d
57d591d188a66af40b455ff48edd753e97ca11e5
0f2542ded5348da38ab5a21a925ca09df669b530
ef17a9c5d45b5c88dced58737ce387d8766a7a20
473af5c98e4bac87a214f85d514904f5419f636b
9c8d980a74d7cf786aabaa233c692e247767aaac
f0a3f849f7d0e028eb97e672a3cbf52648b98617
5f235eafc35da8b9960842606aaf4a7e06baf570
31ecd17212f9fe2e520824d23c9463b7bb46cffc
a8d67b02825d6fbb1d145c7aaee8382f5f648035
66c4c07ec08b568923b60752a89146f279140f64
ed729255478ac877708c5fe5efb219fe54495a3c
e879848056a5f53c1055ebbf4f9971b5ab2282d6
ecb215c12fc68ff53bdc353d51205a7f20af778e
9dfad35423df0fb4564dccddfe69b73608f826a4
75997545eda02f77603bd59a05932819acea7a56
c20c8526025fb391d6e1a8d0bdfc344fc223d917
2af7db361b73f17af4b43ff40ac3f1fc49bc0bcb
e10e9d38c4ec9ed081da916b924b43a6381fb93d
529d904d2902ecd619933db570a4dcc1f5a482be
1a7d1f70239bc35ab94fa6444ef9846fd71de309
c77ab7d09261912ae3bd99f14c86000faa6a370c
daa79f3a118ab9c006b731ebaf94c56e44d95381
e85ae721b24e6903a212896763bf69d3ae6bb923
c0580cfe7137b4ba461d47b5d13a18cfe65704d0
1d577b1b8bd3f51bcf8d9d89bb4598a28020af07
f47fa76b9ad82e29b0cf1ac2d3d75d84eeaeb41c
4d94f1d1e1aef8c0cbb745e8f4e876e0e96c3474
46f6e1d360f459a7e1b6654cffe2796b62d8192f
b5527e905ef3192db653dd3914aed4fda1ca8adb
40bbe2130a28d1aff150f0266e346432e18cc5df
4d44b379394f0ce82c5b0cfa610d8ba5a0d5d4e3
b7a7c33fe35c331d11423db949e1d4b8951da08a
488ffb11d8bb1650982d7514392c4951b4365e98
276d619afbe47667c7cc552aee652a1f385fd1ad
354de0a8f031fd7ad29d20ef50dda5c784bf2202
1d196c5b591269eec0fd0be7f1807a1effccd94e
9c1b31d20a2a6f913802f4200e6910f32990634e
39b57b889cf77f38b25f45bd38fad58d22a4bb73
553cd034b9d1fb8b9a55c1439860b728bfa623bd
1fa087ecbf7663e675c431471fc263324f131bf1
ff97d1db292327a361d44c1a6a2f9b8dc9bd00f9
378626b31fcf93efae154a4e71edfce45a091394
5010fe0a61436ee34651866e86153c8c20e1ed22
dfc05a6ed7dbc59416b0a2cff26ac91f64e6af26
b26e61d689ce3f7bc52d392d0c4750c54a094f06
d900f8c21d2c8205eff3fb392f1b6f134dc447a1
2bda1b530adad4e92039c3e16fc08044634f0cd8
cad7c1f1b0e23a4a1320d967b17aafcaa0119ace
45d20d5c9faf51a506d4d2a9fdb04b9cfd876876
998b408db3403e44566ab3f08dd381a7e03f7d1d
7ec12d327f5adabffb71adffe8a5ebdaa680437a
824bb3419a4f44980374b4f73bbf5063ac567f1e
a4ee2841be0be8e69d624f0543ab9d0ebb4b9567
54378358327ac0fdaa2982114f74a17ec4cfe0ad
8dfbcbda299ac0ff13ab88650784aff70d9811a0
26b56d3addb34b409bf10b819a1e70ea2ad46b71
a6bdd7cda43d17fb7721a0b695e66811c5bb6bc8
d4665f1703241a4f0325348d0e3010520f5bbdaa
9804741fb3412d47af414cda7239deab24f84ed7
a52eafd7e8e9ac25206088748b8e53d3809a9e4c
c7c9e743ce8d08fecccea11372c976e63b2f2955
58b968b6036dc194dce5a3e70d05d493b2fb6b58
e8ea98017f1c1dd5c892e2580e7635608afce83a
c77f03d886f5785e3a59935fc347c0c4c72bbe37
cfb3b977a1d65e8e0805b37ca243681a9d93a4b7
6c5c119f8cb1c5795b43ab73ccc54ad7ad5b37a3
58c33d71db9efd02feafc32a845bbb3ea0c9d16d
39d71440e1581e9a318dd7ee81edb43d8e6a2ff1
96c5ab62e66975f01d82ac9a913f4457273893fb
c7038ed8d6e3cc8b7aa2b744c3146f1a1cfe86a3
6f86f38ae973279c1278f07ea22df66fc7e6273c
f0ad07973797592b741dd97c6137b2097bc71b5e
14f2e29af9cb23021facc075c38dd42cb8ff678b
30bfb989c1ea7433150651990cfc4dcdf63d7f9e
8edee3272a086a57c9ae2cdba7eba5bea436c64f
fa277eda200228dbef1de9317184a6dc8b1945a6
427d9c4bf237cede1f86536edb98d5698237af8d
7eb0f6105dac524a0b48ff5a8b36c91001ce5409
96380e756c069e5f8ee48dcfa3e0c64fe64a1ecd
341f7757aa1a6046ca0803a9d42904e399e6fc7f
bf046492fb41899a715b9b8e79bee1b6854e40ac
bf5960e9eb08396b7fdf17aad963f5e0c4dd1557
d9af92f354776d54ecd6d392b7343543bc4b7181
ccd43e0cdafc2048e4b56123123839fd162b45ea
d9c700e9fed0ea964eeabc46809aeb76425c2a5f
a3b4cdd614d0ecd20c1b23758df969df0ca410a4
9c925b104aec2105649bf7b4d65400d6caeb817f
548540bc2de34d776206f32f15218bdcadb36c19
620c3e025ac5c5aaedca94f3e2aa2cad53434cc3
bd2230961d0db207cfdc848b4e1012bff71220d4
e58af1bc94fa614d5246662f40aa7e13d87782b0
f841056752414939969bbe3780aab899578d82cb
a331c87a7ae6ef3fdefe0d22a3c8a8a03c57148d
dbad71366dae6e6d5eab4a8006e228551f1e981d
feab823bfb8a180c537454ee00024a3641d733bc
c3b0a9c6b8b40756dc866a11d71281e70b83506b
6c0b2be41234c6593d1ca8283f1a766ecc861026
e48bc9c0860e71bf91e2bfd7397483ae82ac6fef
97bdabad9c62eecb72555911cfa9f74570204943
a170f05b4bf7cb4b7bed244275fc90f978654988
17e50491946812a528958c8118d1171c32b109de
c230afaed17fd1c3134f0d5448e0b5a8f5d69a0d
7b854072d43b2d0df0bc6c9ad294661a7d992c35
0c5bea8b30bddab46048d604cb8e1d6e751018fb
bc96c4b7b36d96ce9a290905ea2b9cdb15f94eca
2e0dd65250be7d04f2429cecbc8de31c2e30cb9c
9128d4f16a8ccb102bbf863b88e6be8e5574333d
ee433ea911ac9254a46c25f6d66dbd56490f0be2
a48ed71e86d00726b5bc5a6418b9693af5b8e603
4bac0443e828863c3c4456f31fe6995e9f3bd9cc
d92bcff1b6c595e8fea888009b994044bd00793d
3a2b099e4b7b35beb4dd443ee366db980279545c
5dd35448a2282bab8f004318460d570c989d5356
a68d39fcf2067caf272e8094fa476364ad0bc7e6
8a4e70884781a567f6da28ade87633b0fe1c9f37
be1426a22096f6e95d36f389a5ea9b8a38482ebe
cc0ad9f1cce1101a841e45f79120718da923bd20
f03b2cde62016615eb9e3c4dd46741017c66eef4
94aad586270abbb95569d3d45fad8db810bfc098
87007d4eb80705f0a1784c729920effffc80a45c
5d5c60bdd30efbf4aa311f09b2fc788d629910e2
d85757a008fee55069daf367a0bb70774e95bbc6
f979c17b67aaf2d7b1184edd60b5bffe8093d9cd
ab685de7a31d5c4745b9956f975b96c65cf4fc65
2640832a38c105f2320efc8ab390b4985abbf90b
ca5554dfe7707d2cce712d1165a648129e0a9c84
4a5dc3222488db44b0174297f20b83195601cb8d
6bb00cea6f58fc758703a6ac7cfa15b07ff53e47
58bfd6bf3bb0ede4c275c3cc91f282cc5e24f928
18dca2a8a48a5cd872d6d889c7bceeb6eb65a08e
8884e311f1829ddacbad5bbc2b9930b9a8fbf422
4b1df148a6caf13d7a696f68452bb9243f83dcb9
2600f46fd738faa5ffbb427a2c30fefe84de3028
15ac4127e4202548d1d71401adaad3a39b96d1a2
725156f08262895def7a7041584c39d18356f503
b58e6787ee428377ae754cf324aa558081c1afa1
067a2af700b1cfa476a4bcf1f55071ccb178e25e
60cfb547b42aef40f1bac6717b7d445d629b3cc1
2508c76e97b40ac8aa14fa364f462c930079a437
b36e815026d2e9a345ade3997ff45e8f2f3b57de
8632d9011e03ed1280ca20defeb4711aa327bc28
d299eeb48576639ef8916fd78a7503fb453fcd79
a3e760a003b8477e0401a414c9b773d3cf4d4f5d
05bc0ba17f6d388905d8f808cbb4b616ab540675
6dfa455f9e3ccf6545d2fe910fe1533379aa06ec
9828267165587e02524318d7a64a71c357230f56
c3559ddbda7dab23d372e6bc8eb83c17f5d65683
baf9ecfe7baae6acb5c022484c19af2426dac85c
8fef51139063c49d452118053c2109ea298d507c
3f8a830963eb9676b91c2a24c17ad4f8331069d1
436380c41e28aed55ebfa7dc02778638b5c21321
05850da8638a5af14c7ee5f1ebf4e17cf10dd71a
8e23ab68864bd7a07ffc0fbf2bc90e5390cf21f8
5a7f049fe2bca201d76edef987a3ec36580c410b
71727e42dee8e36d3cfc3ef36560b1bd68106f98
f53db96a3e3b12269f85e870820b52fb8f679ed5
8057c699cd03b2f59207cd016d6a60e3cc3d3910
bf032044bfdc869c290ed7c562e11d32dc121cb7
59012390f6e98c29862853d06d766475cb1c1960
4e60c395a9f0903d763eda0998990b5e5f57bcbc
c71dc9d4b67bb8486caeb2fb4fbfcf8f094c7291
915cb8b55c6088ae566d178612e939b3b29752e8
28576aa41ed3527289e6d60873c3fa75f87cf0aa
1bad0b48cf1ad654e1c063ad97f7c0e3a9f27c89
6869a2bd232c302fe5d6f7b44f4e2e0673af6ca0
8fb80e91796e8567aca5e2b8244f853f8631217b
a8723412ddf2272fd791da2bc0e6db656efe6593
f858a2fe627e2f2749cb656647eed3d95ce3db99
c08919d0a0a8b391598fc1be49956a5ae5c7b375
bd8d53eaedbe7c6251df76716a6cdae79ef6f8b9
cfa2f726816e4604e65a280791757e6d2c469ab8
2b014ce82a71cad586ce3919d31d160fe05366cd
f4c18c6e744564442a0ffdd229a9d8dba608f9ad
660e6f4afe6a5e1e53619600a5b14f11dac5537c
d3327e7f467427c04e45784044c8cadfbb6afdbf
ecaba683482a9bff9f1e6cdd04c6d7531238542a
b186342f5214a9884639439a587b710ac7d2a549
5fe2e7fc9d2f02530a68805062fd7a5abe396afa
0f351d2c4734cba9edbdaf82c69f42fe2001abe7
60d9984db14bcd427fb93c6b00767683430da9de
70a51bcd8d9044bdf3b73e3da7aa29482f61e05d
d2b137649d753b593ad00318c8b0cdba13b77447
d19b575c312ff9db4ec0b53de2f588032f1cee58
4323fea5fb8790a757c8a272fe59b4564e403837
b86d3d692aa1a5417c2890f3fef78cc2dcfa6577
5830875b42be079855e440b2e2bb364eab42169f
94a9096be589f113432a769372f7083db651c259
b271774c905c4e63146203734ca62984fb84f308
fe66f33f4219fa1d40fee2e90eecc8ea4d8ae0fb
f2a35273e655041b5055676cb55f440a5bb1e95a
559b860ff661325dc8b619687fa0940491b34963
6e0e38f09f74fb633a33cfd5c59265518bcf85be
acde9a3f8e520e2fb02e33602dac4e5af5df532c
978cf0d98a5c53e0bfbadfe666674fbc90adb429
ed825de4bffe5a6238c750f3fba3a492f9263211
fcd6becad90515db7c7cc3b3ae2aed481e826eed
7b4c83b462c8f2a8708b935c631be6c339e782ed
096e4c95efd2d8430002f5bfe2bb4200da715b4e
41ab17b9bf424e001da4a3a6c830d54768aec86a
e66fc219ffe6621e71a409b078ace9cab87eac16
9599bfd5699ae2d525a016592eb5de3f7dd681b9
526dafca7505904f26460a46cbe0283e161a1e9a
0f8fbac9f8a57ee2a57b186f575652d66e2b4979
303f83043b200d940ac1d82ae23392de61f18fb3
88df53ec1a53912c2e34892247c8218c2fa01838
3d6d9f394d763aaed47fdd0c86023afebe3c5a9f
5f2c2cdc9b094c1e13bcffa531da0701240b5b4a
faaff91dd041b7100992eb60b6856c4de50ea7d2
03525f4b64cbc6811caa0a2604baa8aeba374b9f
b712b030fafb40b73dd5e209131cba8edd65489a
6246825fda9332a421272ec649bd6ec0b3dd405a
b6038534cc432a27fb47ba8ec2a29b2a136217d8
977b6f3a2846b1d16a07cbb060c103d86ba12566
dc4c4ab6b9369caf5d7d1bb25ac994bd1dfd4e3e
71f25d13e2685493d13a157190d068c0a79655ae
4b48a227bc2306f73f12afedba479618a96ae269
0317baa10d271a28187f8bcd831ffbfa9ef5cc93
a03bd5105a7036ec76430699fbb9015d48785bcd
4d969b964f68e3821f72d71eacbe5cca2f4e1d37
e45db60b5e0c6f1ad3b5c2c675d62948f021d571
03b7b2d2970540f60c200ed3dcc855145b5f2a32
273948055a5ae38a01f1f24f64026aaa1a8bf0a5
32affc8c8b3816a4a3e40e96c464d1be68600409
e262f425d22f07ee6a9f2e4533780a79a0b81261
0f46d4b3798be5a19578cb18db4762ca5dae3107
3acb22c38c7c37600827e8d9a478bce9b5f6432a
25c7a783a788b04f148c56f12d6efe1e11d093cd
b644d4e9319eadc16d662e6bcf894e1cfda1f728
00310d96af495ebb5531242ca1f9fc4336c1cc9c
4ed5b07e4e4cc91c2ba2ed266f92b3f7c176cd76
891cf343ca1063947244851d1b7080819da56c8c
39442a3663931fc2c20a6b25e761603384d6f6c1
acbb38653983c972ae5f76a8268b636adbf6b622
27e0ec1586d6eec906ce103ca13779d4a653db81
54ac1cd420b0de5604e9bbece37d3825f8ec793b
6983f704c0882dd322bc1cf0c7c1c635e4b05ea5
742db71a524496c8be21f49b472542cbddc05d4c
4eff91df99a5ab0f443a7beab2cf4b2f0e25d6ff
e2c948782b942d79911cec09c8862de0948b31e4
6fe6456f8d7520bf2818e3048514aad6accdd50b
a8216e7ce011a595bc5eaf12ecabb0f4526eda6f
151cf0c7824cdc1aa9572b91f898918502427970
c1783cc8d3b4d763aed7f832bda6964110a65b56
00e059b064fe7294ce1b2387b95a8ce405f80c63
e847fa64373be4e9e74d2924d78be2c575013d4d
5f891952476515100a014a89d60e32277c6079be
291bcab9f966d0ba01fb73f8933af4697474087a
bf0bfe9a6949b15e3954ee9ccb7905e4eb12774d
0e341c9d7230429fb3aea2f641aeedab6ab0a03b
dea1fde604ec44f929ca7b645341f9f64ad66d91
547d4c20b085b06641708bda098de488ad2d287c
4f6d05365a284edf2f692e11b573e971c258a1e7
27190fcb7f00f725661cc71b3c2b3d76e22a005d
61bbb04852211e0200b669e260a1696c39d58935
bd87284829d17ceaabd7b4bc348d9c1177b85aa9
8bd7ea2f93817339670b3d6eae7499582de7ead2
32687816076e1dc15a0b28c0208301cdcf8936b8
319b7fa69ac5f4ae53216097184ac2eac42caaab
2ac798347118656145a7ec63d12cce44922727ff
3a12a2db46fc93b1880b0b4d75c50f8f2c38e1f8
a4c66dc2824221d05e1fcfd54e4f1f4e2c125c40
a3b46ec9d75f6e7552db51e9f8ac5ac1b493bf1e
646cd455eabf3454d615896c822edbd788d1afb3
d385cba41cd74f528443dd1425728d21ec151998
f9eff516839eb3c05a9b6a25f9f7ac32de96aa97
9319e3ebd0ad4934da7380d2df91127bdb89e621
b8c0751023ad0da49e877050438b4c370bfe7f8b
30e80f8c5c7f0bb692dfd8efeadb24d1cf840be6
ec51b359c9d1ca36873b2de5251a7fbd8b4177f3
9aa9d8a99b43022df02851a10272cce18be8f7e4
611bb3284650ccbd93696c4f699d2d1d09ab431d
992d431a95787070f326cd8e68e044e510ce722e
2e44a1ba91557d4d6231bd46c63697776208bc9e
bfe44180f94e53a732e2fb77c01006fb97e4a54a
2ad1451ce8211df9ce12db48908b531948977de4
b46760f93fd1b50c7aa4562395a3173fc1e1239c
eeab6767db852d251bb86a7f4363fb31c9f07d03
97ea338bceeb58139203b3394d3260bf8749bdd6
b1b0319bbe07e171351df55ab1e2c676e91cf4bf
03de5f479a56f96827229ec6af97f2fcf348d813
bd0339ce1af5d6f27172eb7a722be2f4036196cb
c5ccaee5065a52110a4124505002d6afeb7c13ca
a54217053f54e06a6f2f8f89709b1568e5d00827
3f72add89a41b3d94309bccb0d253515c0543b65
29bed32a89d20024d171bc46973ea99b9c6dd965
76d7829d38803f607329a987b6c8d31a7a528338
1295f6d3315c3d3d4152575ec9325b6d73ba0913
cfa300f4315ffac89fdc1bba0673ce77eb3f98ef
ba8c8171fa8b8ebdf3bc748cb7d41257f860330f
b5c87b0f9c467aa7bb29eac90518bcf2ab69dad7
737a3508546a125e900be9d1bb123952c0a81f20
a192cfdbf0ca1a7959d87c51ef00d0f72be02450
e95d3de1ffd09a7e4896482a396b7e7120f0476d
4ee11cd36fe579d23cf0a36507e8fe27e9ac2862
f136eafd5eff217aaf169f50d35bd7fbb33b9308
f75b6b142c7cb95566ce102be206fa951dbeeb19
573a723dc23b7dc854d78f86d8fe4ca435bc5aa2
e263769a55f2f42963d3e1e5559f813c5118ac4f
a03bc6ea1dce0d2ce458e0f01c7611edadff3d70
eb91a6d4e6e67b234e784494cb70dfbecad90e6f
e564157381e0d2a23aab97ea50cfe0eb79dd6cc1
ec5ad7b22c866fea7f15d97f59ff13f1825120bf
340da3e97b403b9fb78e31881d1f2903f3257e4c
3fe9a58f41be973b023a21c5d40cd5cd62f21ed0
eb337ff5a789cf85be33e496175c40cd72ef85f4
793a5714650f0b6cefc6014207c16eed3aa20c3e
b5e6350bcb3615ca5eaf7dfb073903e5192fb4fa
4528c793ba78a8b2d134d14eec0370a823b4e899
0c3732cad5a28ced358c7d5a60da028012ec83c8
d5a7057c3fcf613dc6269039a2c320c54267a72f
b9352ded138c5318761f23dd3864f39978118fed
8586d43b230930ef9c46a9ec435f5633bb0ae43d
5d2e0688ab7e55492ad5be9c6c0136fb481c8033
cf2fbf7883bdd61f2df7844eb058af0b12af779d
7d80182e512ab01d7348ef0ca71c85073d837a0a
89a16fe01e0ca10d73de2e8c057dc58d331fb56a
93fd73fbbf2054a6785bf58bcf40bfdd7c91bbfb
1e9652b47ae9e0afbbebff3eb60af743a9c059b6
2ea45950f100bfaf9324c53f38ce49de59f9b555
ae859c2de969f7a5b86c35ccc0b81b291defd71a
6ef1729d0666bb19fb0865a5e78a06f45925ba1e
5b44fe6e65152377bc93756abab5b1acd80dc077
b004066f37bf9d4cc2d394f268e40f4b8dd403fe
62bf98af8cc53d5f87ead0fd77937471eaa51b9e
7a9d9d6a88069d949647deffedd1a2f86f2903e8
695665a4cfc1259971321a050ad38146126eafc1
db0459ea9ccda8a4b12069375d6c6bf8fd6a9a3d
a1368f0fa8b6275dc1e72b8bbe749b1c4fd0c6fd
77c01d252ee80effb6e28ca0919171254c80e385
44142efe55bb01c5bff3953a8b2d6aee9b76c6d0
4229b23a510c19c662ceba5949391f701807e8ae
f6735f8cc98ce6d44d635ca3adf6cc66444b2ccf
7b0ec599d6cf3164c3eb4e36f4db024eb311521f
8d89e4817785d425a9fa653861181d838cd619f3
b7b17209ea96937848f9d76a23e9344ab6e30cb9
310a87a51d1abfee9e1f2441adeae31748d61ed3
949435d10542b8167d2ffb87e15c226ea5d99765
8b82ff5ce09fe9748c18bbf3d55b3d4eb108ccb9
be6cc9c3243cb0a70a986e22e6b249426d2ab939
6339feaa8ff2b55249cae9909851d74a6554dc78
ad10518fcaed957a7f056988fb1ffa09b7a4b620
3e783e1b5e9d067271bc8e398230e056379baa75
321b18d4d190cc14977bca4ff5246d4ed0cdccba
bf8345999c43bd32cffb2e64673a1a1d588135af
312810d415da381fc6cd53358a4e986e7bdc4f63
e5a8958ed6b4e33ef554ce6627e3e1cb5aeba4bd
16b05def59bf321ce5d6354e852ff198ccfcca27
32f2122e642e38d29f3e8c0bf606c8164ad3986c
717bde05e279d214d699b6184cc46af201cafc10
e45ab1d1820c52c22065cf651aae22f5489a8867
5f9090a7f037e566c511c02eb6ae73ca2f6774cb
bfe2a96505b52fcc990d7e8e990c3a8676c42c5d
00c4b944e45e3d3245f1bae8a781c8a99905d533
6208c628881b0211c7ac82f632d7b09c1f04eca5
818a7b42a3a688bfbf60b32c7c50528fbb480fc9
b33df8399eb15686450dba22957c15f768543ecd
2adebc4c54ae98565db8e2a3c02b2ffaa0c101fe
40e53b9b6859ccfb622b14336a17f81462e584c8
97d07253e2933dbca0d08cd19072503506bda863
d28eca7138217389631a406f7cb116f34a8f2814
b3be15204d0389c31227ee16e0d3a1422341dc99
9ac522382a2ef8bc2009f7eaf525a7b41ff410cc
a05064d3ebd06a041258cd7b7a197da8818a0146
36c8eb02e82996e1c0c2e3826624fc3621741662
6f2840193ab8faa7b2e8b597118b57cd533174ed
aedf8790c33c60097e7384e73c3333b032c60a80
ea4a0e3535723387edc80321a02033588f8cccbf
f1e382c89dbbc36ae1b116052b1ed8f780c0178c
1cc104e1c02f5ee54979d8dfcba5aa4fb20d3503
5d45880b9ea338b56d62f395c6ddb1a89b27f510
250c2545e6483cc781ea03425b79e95d19b31348
c77bac44a23e75fe258c433296f97185eb59d71a
27dc582e2bb4888f082806756e2181bd463c8db4
96a769805bf93d5898da01b746b259998afd26a8
994a8db8fc2e1f8014e490e1ec2dd08995a130a9
90c0481ecf6c69aa1d7368e4d3918e1616159059
1a7e7a1bff51e4f4a6c76d4cb17478900dd56cb0
d293e6c3898f7254ad6a043f166fb076c8fe3647
4e3258973f2546125ff9cdbc86664fe2fff38f13
0526e1cb060e2a21fb47b33c3ea8f8f83a50b793
87ba8cb4b054c59bc699c21d48a7c2e8998f7e31
93d0226c039e05af0d82b824997ec6ee8997265e
97038ea396ae99ead724ce10586d5e27fc6f1071
9551af60455da3a061e2864461ad88381afc2da6
71254e4bb506eb540f408269ece512eee5a5102d
fb6ce4989a9c572c3423707153c42412c902810c
c43b9b4dd259412f3fa3c950f41658d74b1d84d7
c38c1d0e6f0614ab9fa013347fbdb00a31ae7470
d9d8acf3311590f31197893427c6a24c5fe485ba
8bab0aae9e443c6abce66ccb635ecae7d50f4fcb
e7c6c880633830b0543566528bcc652157cb6bf0
6e98a04813d19d3d1144b6835a316c9150b9f711
d504d78cb1bf92be2ec3a7327a59525cc8c26cfa
2ecf26c8ebcfcd78fdfa13c6c78ba7f6f96c75b5
b8ae8be96a24dc5c40ae01b184638a9d6f9a3fb9
cf7a55106ca824fdc31ab6fc6f22a7909a93508f
cc1e4d3bc7f328545291f14707aad36cdebd62a6
8ab1ef143208c582b2f57e9dae66f49a737a03fc
fb17af426372cb9c421f2f4593fe8032b5b3f267
09ad4faba98e5f7276a658a04b314ce26aec348d
37a80ddd086db97d3206d87909e2bd03c718d19d
f1c07dbf0b2c47b94bc0509e30087347fc2ebd12
85f8247cef07c5ed3bcc6f40fba8f54bd186db5b
e781bd0b1ee902bd404d4def91dac4c9c37a1bff
a1e8dad4ad5f5e15ff4d9a8c8890b1fecf8eaa64
47045e12cd5a66dd489cd1a269e5214b0a47f1cb
a1b668bb2f3f43ddcb37e1e7a448e5a02e4a78c5
3d44aeca50682a33747d3c6e41fdfccf93c597f7
a643bdd33199dbb41bf577914b263ddb199ee639
e55a1f11b54333697d0bf72047695bcb914c2333
4b1b0b8c18ffd4852e1257d72930d2d684303bf1
0f0fffe488d5362899cb77755e456dae7f806c76
7f3f792017da8728e65d2756225c779f9a1c5e45
421eabe666f5eb3c760c757e991e4f37213f7333
e530ccaeb8ad8049e39d3dc76df035b3b4095559
1f1403697bdcb70de4bd4717cfcbb343e72b5804
af0a7eaf13552d873f63d9a82cf62f404f45721c
ad534efc58d8be5eb7f5b1a211639ce451bf2009
501746aeff12dfa288273ae0ce594506bddd1e9a
b8a60dddd326c344a8d6a5f2f2a4cff99a2888cf
0334333c82e4646bd16a5682f1d54ff362db5372
a3a58ecbc017b0445d61c34131c044e96247fe35
26e64eb3051b7d159a9c31a985aced079709b60d
8d813b127c572fc83a08a1166fbdb273be050887
250b40ec3b81960733fd1f1a8d65bd8630a5e4fa
e36c4c77bfbbf18ce8e46fa8efe2a809df891345
92334b919e4ac394ad7f2b99c423224cdb576f19
787f5b28b23651880a9385dbe4a3ffb648b3d47f
2ef8b23ecdc50d2b8222aa3bfda922395e4818a8
c588a8a40bcdb2c8a05aece70b2262f8a57e6f09
6b5e3c5def2eddb347e36b029e7343417c3384a4
f5fa671459539a42df40d315c02e94a42fcd68ec
d66a187b5d700905e0d380faa451f15a26b6f03b
917ed5173e8f2f52df02dc6818ea329cf1951422
ee019d344e56a99ea787e55738a19b2c3c615120
e7c6ca945fd2d85b1dd86483d699d7af2399d0fc
c77f107f5f37c40fff3567722c5d656f81b74c72
220e4e886f0e82f06140a225b5fe162998b9a44d
3fff8ce1d63817cb92553c7ec33c90c73dd02119
b79e0b088217083b3d0a485a7f184a536fba9316
613834f3263f6ffb53582b01098ebf66bbbf376e
ec88f6617c872ac62a3f6f9f0c4f9b9f04a38911
fae3861c3a5282f5e74654a58e78141229620144
de40a8d09b624468e4f1cdb6f79edd764e292ec6
c57e903c4d10ae27a3709d03e63335f5105f7aa0
0941d617d92dcbe8c75c399ab05114db99f7f560
9a90b947db97e30f4af319e6ec2326c597e08e1f
d6f1a82c310d8b10bdf7b3daa38132c0e2224c7a
ae2906de1ed504a4170a2194a9a7ce51a8e2b0d7
8595d85e4a450ac514d4d7e019b7793372fb66e8
4324c618833138c3a673c6366e62e0c36b4ad78f
efce2624ddeb88a77ec81d85d279347dce2e8c2e
7e35cc1ebb4c89f2f5d1a0f1397ed0ddbd0b1625
dc300f2c812b2231b527c761f4c73d5155137516
a280928731d4dd2c778f76ac50dcbdf50570c713
d2f1c85f24c5114e9ee8a7914fb9dbe667ec1dea
217f8ce1fd26d7c125612ad6aa4f53819b403d12
7596ad8d584ea29456eeba01cd8e70870b298113
79425895e2a990fea23dd1fe104660c8c11a5e08
1ef371b6255d672575f595fabd435130bcede273
1d0d4fcd78735371d3540f004fba9e97b5d5a66e
32188f83acaaba30a13fd266f47c3e7c9a0c0855
7a4e3742941b7fbe476403161d8a25f3f524430c
0ee0751fec20014f9606050120efc4f2361a5f8c
4e43041c95b58eba8a61855939c01cba21ef4944
a7a4081e70ac468d96d9a8799ae27347fb13c4c9
1784283d29ed73a5e6c8987badecd11f3533922d
61a7c78a530af183dcf67e6d4507f4f240aee241
87f50e135eec22791ff38f4e72161f7091b1a240
b9d16663d9e78c52c762168146ee8eeff0942abc
27b83a480b764a5dbbee41259fde5b79aeb63df3
f8093408e42f11424e78bca45f11ded801b9373c
d0c8c10681fabe4f67b5f6043e7ed83e2c329a1e
be57cf3b51bc9f6e12ef992c2999cd406e1956ea
c55e10c12aa851918dd727f12643d1a0d9ab839d
00ae0e8ad9113a55bfcc9c8ea7533ec3fc7f591b
2610a94de9f9ccbafd37b1e4ea605b8feb5c3bed
a504aa1159092a6ef4fbc285c49f3678c83bb45c
7b2992a95afc04262d2c9667972b8b3f7231c61d
ee8091f6fbc2912257388de039fbde2322b73247
0eb7a42c690bc5071b2ebe3be105b806a63e5730
a6e3d7d0caa00b5075f64023f366a8eb15b94653
4c072694be32bb40da04852dc02322cfc9ee1162
1f69e664fb94c12bc2d884d8b4503826d205e323
5caf78acc07c323a7cac85a72adf231a2fabb987
7e75a9a1a9b2e23fcb2101e86d7151a1e3616873
7412c371f2e4a74f64c400490afdbc3e930e83d9
b9c879375502bc50f92f136c11e7906736cfa078
90b12ba5d278598f957b6b1ee6e03d5c06827220
660e4548a6f2bd7a913f624e65611dfe6a123e4b
d27a27c980463612489664a15cc0efef293cfab5
cf0259661e7d02d65f18a73a173aaccd9164d188
7d36f936c846126a9c20253e655f4bc02447700e
89444ef4ec64456434663a4140e8c611a9be19cb
ed47feeed81819562bedb707fbd44e67e254d886
8970ee751cdff6c7dcdb116cc634431a0fe8bcb0
748de5ea8394359a2cfc2f925a530411ea3c0f23
4a23c2a6eb5004d21dc5e3f09a32e66ade528c92
10f7a319088d62d6b883ea8faf149b842de7b0bf
09570db0915e83a92679e0648b48d86634b14ee4
6b819fb993f382381ab11fb2768ce405332e08ce
ea0c9cfe79e07a5e11b30e8d5a8734ee98957b62
3def2e65989b33c50b2fa6fe2014289e3374341b
b1a156d3f2c86c78f64da0def78727b0952018da
4831eb49da62df72335a337916eff789ac74c0ab
843a94b989818df5e465b82b2c73eed914d47f8b
f759d3053852c8bd349896e71036f3c4d65836f3
fd7767ccda80823c077cdc3701166b319d0bd078
06e754eb810c9d3b7815887980d99237a9e7d176
35ba150db0c8486417f6cd4c757a03293a43677c
c2e65016fdbd8f5bd8a1b7ed95fa4436b928a4f9
36dbbc4867ef22d94455b047476db1957ae7e6a5
aac5586428ee9935ea790d2e77426e0bcade4c86
1ed87601b857370080739fc068bb039a3ab9b9be
0aa99606d912952bdc0c40ec8869470cccfec143
1e7c65c12eb02f3f6e4e45ee22e77ebc16b37df4
4d8e2198fa8f0e0036396ad8de8403f551b79a03
f991a8c7d4475690da97a8d796c24e883acbfa98
3e0cbf0caa69df9960a013afc1e7776373aff9ea
9abc88583c392f890e5f14d7dfec2e96dc285c94
ada61d4985571f5406ea6158b02755d51392ebff
7f96221fe9c1fec64b568b42bc4a05bb1434732b
cc4c98d7baad8d72df1d8f534e85cfd249ffb67b
609674bda2cd6083179b70c1fe5cb25545396890
26307cbc3e1ce776eb2f3ccd40ca216f7edcdbc6
e8a74c8ad07bbf497026a6b8bde532cd61f79f17
14e68aca57d39a8185e79378c400aefa65a44306
14cf227c46afcd8015abcfc4e2b37617a7028e3d
720f62d9830d3dbf296cc94d4c1b8bfceedb4025
e2a617b07bf5c8f932554cf4e9597532fac66a39
ab5043b3c7f04b3ef9744d59e80fcb04b34173d9
49bda34a5d513797a66ae1cd94d38fba2249f080
0fd824c3bb2382df4ab9495810bab20150db3960
c32df371abcbee7ebbb77e6bf6a429d3f3f4134b
32c982b478229b888df03175ae6a48fb640a4511
7fb64e2046543895cbec1d3b67ddfb2b1f6517a3
f2df20ddff2264d660520bd8e852d0e12520177e
743596aaeac455f009d4b0c6805ea8322c785b0d
e2a7462d703ed73f47d2b01b0956f949d47294fd
a5a76131e60cf8ecc04d8af6b85d628fded6ef6c
4fc089829dd0a7ae80617928c8fec506e8e52505
a73e6ea5815fc3d6d4c76ec8598b8698940d4247
a91e72403c08be6fb3524ace01cba1ef5087ecac
e8bc276ddd9b5e6367f8c866095c8caa003fa56f
24eb85cdf5e56d8b55f68ecec1c553f38adee61f
392623749eaadbbb4169103480971fac0b635784
81e8c4993119eb3c225ab7c4b55b1e2cace5cb08
e00f303e4ff3e5201ee665ff0ec3e6034651b5d0
f29b6ae29ab208f0f138350dac90424c9d4b4eb2
ff8f80a008e473d3626712a24e62de0ff6932511
5538de9a4220760d5d1b9ee58b897ef5b904d27d
f60f918763473dc4ec4d01e56c0c0115e32c62d3
b06a4bea6b723b2829d23191d3cd57cb445b3cad
cd11786994a6863f1f6a52d29c059b49bfad7750
326b88c43005f9b295f305b59d8ae43fc7f09410
a6d7105761a083230bb4d2aac7e58ca5fb07a196
a2d57144b4d2bc25e089af73576b0fc466c9d67b
debaa6a72a44cbb02a091cc40c1802391197fc5c
f60997686db58ab7623ddb15839d16169c59a702
ee4c1a55ebcc3ab4dd5a92dd809499f01aba05ca
0a95ce81045d96c0936604bfe3141bc4cf79e532
327e4349259d5b14d3b5265e7c536bb22ac8a762
41c6aefdab40b5ee58c9974e432a8d3fbc780957
c634539faa81f9f551ca5beaf15243b6c34c3e0c
8846947081b37a53f884961c33b6f126a2cbaaa3
792035cd3816536140463a6e683d084cafe3fcb8
3bd77e93f17439c00cd59f41eb7d310b0121b8a0
714e3d682eadfa2ad8ca2edc70e0076000ef038c
54c97d07202d98eac734beacf885579973b515b8
b6abefb5b803c82c0fd85409f614fc45d10eaba9
3ca2a53e91b4a56f632f592ee266bc8119b1ebbd
bc540d5ee1b1c865bc442d08d3991a800180ca5c
2320a5919f49c9e5705215b4273db291ea40d1ff
ed538209e588e8ba7e94371a801067d73eb2ab74
e54662f7d0c31c4679ea0e06cc00464ca7978bfc
a5fc2d82a5f1eddf6efd20219bd9bc9905fcb9c4
bca791af4c5b55c1e0daf7847704039b12ff7e0a
1afb209010d7db97f2bc76fdad44ff8ca569c755
9c2262716fdcb6fdfee1893c496d76159441621d
51debe12873fd2f08c8e7443d882219e2ef162b7
7d4a276ab096d6bd892844a66f02c06218fd480d
9d3eeb971988d7b93d186e6596803914cfac0f35
ca12e41406db5e200d442b3187ac2c2afa320d8f
5c3b432f600765a143bdb82aa35243c8d6e8d96f
d3a3b329f3207b3523ebc82af2fc406f167100a5
3669e31e14210462a9202175284b0513daf59eb8
957c04e597ba47ce301a5aab98ed57be4a967f95
9f6cc0a0d28cd3ebd456c5cf3cff39a974979ccc
05f955ee10015234d1103a1bf96abc9fd6fa930a
6a0040a14ecd316a50832d1848c03d3b476eae59
abd10d9089bb40dc75b067bdfe90a9befbfbe694
4b673c4ebb759ac070bca4741cef45d737398af1
532672deaef79b12f8172f67e071db275a9a5a0c
b4764f61646ad56383eb884a6ca6e562b458aa65
4b1721af17ec1a4e52d96e83d1fbfaa851b1de0b
4e528c10fae3abaa932e751c831aa48a23645744
cc0d7d8be50bd59c369529305228c328b561993f
62f5623d2af2a5bbbfcfc51cbde19929c35de81f
d475a8cc64613c54c9e3318710a94f38334ac34c
c34d63d159e11f493ee2e1a751eb6146fb209727
d9085e9e37669624f1e716023cd91e6aeadd3c64
a410cb243b875890d96f64db5976a90e9e8295fc
9d555b0b97618c8bdee03a7fa20b3c0f1e8321dc
980d96cf581493124028bb60cc4dc213c3f2737e
d808cd04757136c3ea2180e2c5e13dc509f5a2d0
978168e8c6c8d51e1c1d611a9900d2414e2ec3bc
11e974ace35cb79e2b1f730e57619f9220b3b890
05204025cce2c55293ab55a9e5e380d73b7e90f0
f88cd3120d8cac8dca8d6a122a4fbed374b4d065
3f8c13f138959ffc437e67c86ea33afe74d6c23f
470c1a898a6cdb5d20993e63d9e5b83c298290a9
32f61ed01ac7540ec5bd16898ca590fed36d59e8
1314db9c0ad4b36863eb9ffac0fac64875ccd197
31e3530252ccfa5389064a22e70015f8081c27bc
9c1f3c6fe89d289b61124de199497ff8c0cab20a
dd6069c6810b94ffc33b1cb694f8fbda73737cf0
7f8408065b6d1fb142a51368bef2784cdcbe374e
b350e8d289fb1ec53b63c3393066bac610b20410
8eb3a30bd4f95346adbbe75f8ad46af49007af41
e3fa9810f8d83a679d0c8f82ecfe2ba49e5c31e8
732b11e7d525f0cd0ec77f49765255949f714f41
4afd038fc07242febea70484143be66c0f812f48
6184456689df0d1ece0b6c8be7216ca85c0de7d6
0082a15899f2669e3407ae6d3ad279a43aeb7226
2766133a4dfe542c0d4f8240f69a82050bd6d569
a81fa75c59918d471cdbfda58d1d746ce125025e
f8253e031d079e4cd9fd425c85e608434dd88453
fd3d98cf629be62de475ff1d5b76a31b74113c82
cb931bfb924f3b9b16d90e5ff119bb9e5ee61cfc
2109fdedb6856f1dd2edf566f21f1a200745725f
caff7c941b1db5ef1d143fce78b71da603dbf6a1
5bbabb6ddafde152dbadb01f3c89b2b98f56b3bd
5d99d57cab6d90d2c91594d8755164261b8283b4
a071759575289fb85cdc2a07b116c2a3deea286b
9e8f8ac08cf6200fc07ef7934bf75b38f62b7c3e
4c67a24860dcdfe336e0ba4b4b5bbddb5e4daae4
68f9c7a5f3817df0e7a6e22515663d0107ab3f28
4b583325b09d5b1bf0228407705c613a5dbe2293
c62b47228eae8619e1a3481cf8f6af785c38020a
8ab94510865619767645a109104afc54149093e9
19358ee2469a815d6e93aea2bd6ce6fc1d7a8b76
46125686874f5b69bcdb6f4c9bef3f900a7057c6
b6700fbe58894c59f1caae1fe97cf962ac066016
0beaa107b4be5e68928349c4131d01a655003641
f2d1f1e8ad00ad2c6f81b8c63ec1d37a0d9bdbb2
c4a437e16b42e88eb9947c65d3dd2413bd9ef5ac
a715220556128b0bfee09ffcbf06ea19222a4ee9
97b4876c08207ba8f7c16bcb7c1bae7864c88898
bb6d1402200506db2145c52719fbc0bf769a21e2
c5582a14b8b3d9700cf156baa277f008179ef24d
ebc7ae809000d0edef4cecc825e5d306041ec983
7dbb8d2b8f5dfc232875bb37774e63eadfaf1021
f3c1e143c1d1303392e613a3a89a264e53fd8da9
6d8daabefe0b3ac874e3e50c546e9ac5deadef2a
5557137dc033ea16e7b833d7d074e38c7fb400d8
46363095970e1bd8f6046414fcf15b41a9c25452
af943b7502f91aaa61a08f4df1c09fbe5f747702
3b31daf8a357b2e8b39e680538d2636f4282c528
ae3e3e5abe40bcd24001c1937bdb0d5f55dbd1e9
bad9e83121c14b32e8fa2776239da0c68de9dd7c
1f6e96ed150c42be5484691675bf19c44ea67814
cd69bd4e2cc2be18b4aaa91cf7fe024c3a6a3135
5a91bd36c41e57a21d24d6024035283c2388a1ec
8c6820be6403aff807932063682b602b0807eb29
4396b421f1ae3f6b25fc62e84672d6c0cc72d5ed
3822e8b49ec69b4ab969572b6491144b56c603c5
40ef4d2ccf6c05adeab111bc869eb59f36582213
2fff088480d05b8432fa9813478cd61bce8cf626
783a7e5f9a58a5d7583e70389fe32673940041ce
b9b23663618bbf7eb27393a4f278f1ee0a0f6406
32dda06da35e3df0e1667133cf9b2b3a12ea74bc
999343e8cf9f01c1f9ce926907b49534b1e6dff5
7c412848eff742c42c7aeccb69a172b3d716f7ca
62446827df079c8fc57d5c5dea915bca476eeb61
a4bfc4011db5d1a2d4488db0355dffec9b9d2c13
5b9aa76efd2530c4ea1ac417966ec9374fbae516
0f0f7b7fa92a7c194effb1e2c800838ea507d3da
7f25d9d81a9fb3462f5254c169cfee768799cb23
f62bb850ec83df1c9b3e7c799c2f7869619ee420
51f69877a6728deb39cc3b6d2592fc5b79a5e834
55940f500e1f8c7cb160429dada416c2c776dfe2
181355665be56f8c52e871ff0561de770abaa9e8
8efe131eb0881e8c39eca1e537006224be1ef6da
ccbe3dd2f86fb312be5bb6216f04517378303183
bbd251baed34001bdf8590811dba70f231e6c732
8debdb59e42f46b09616686173b57f0c2afc8012
cdbaeb86b07580858f6006207c5313dc573591fe
c9a24729bdde00e2bbd0bed5e307af16db71e1c3
b38cb5c081d2c2c28c5ba23bc8c27d5507b1d39f
507b9d0b701b6e3c4b6ff7a27c51e0f20a8670cf
9aa81cd08385702fd684e7bb1cc447617ff51247
8df2524bb0661d3f99a5552af297e5e47ce5d715
cc758aa3b638459272dc64031389bd02d60a2001
31b319a5dc531d8c02c400d312ab9e85e90e614b
a67e5502078f7dc03b0faa53d2965d5c257e0399
2ae095f92cf856193debdf355a98144bf2c36059
e9f97d66624d8bd07ff6e51069cc5582166e79bb
a2f440454521c6e58396fa99a8edc4531616a9b6
579ddf72fc7c02373584e8729e8fc77474ae25ad
68c9b0feeb64c1f45b38c18fd8e48cab1f27aed1
12d93cca292cb97d4b5e8ee7a7ada0b6ba840961
7057c59f3d56210dfb9267c8c0a7275e8c647463
509edd86f405fc749bdafad8ea86d9866bf7a102
6ee328678444db0da52c9b29e03f8875dd608de6
79d660ca91592cf758203986aabf44a206617b36
490fc249f8fe659b79514f96158f87702eed837f
4ea375362f0783608be99e573e9a8e59d07499ce
0d6a5e004dec4cca2d3fee2c521c64f6a608ad0f
9f1c39469787d53a4071b661622a72902156e313
c2417c253c48bac942decfe923743d2b09d63a5f
83ad5fb07ebb19ae1e47a3e157a5eb146cfeba22
d6ea072ccc75c42030a1b8a380d7bbf32b6e1e52
6b3b3b74265c97c33186440d10b97822adc662c7
e85996ea466f635391c7d4e72f829bd1644ef093
8982838ab2a1341f9a8c5b0e7a39d3ee15b6dfd3
ccc155e96fe498a62e302609d0bd65aa3abecb04
65fc361eeceb195e126559e1eee6bc58dea67e0e
45a7692f0749eb623796b90241fa0133fc54287a
45a4b5b7c451e9829c410ca7589fc3cc00e6de49
e1869db9130ec7b28074ae7ac70c2f256ca8ad03
92ccd2fbfa480006153a7d272323f68a90b608b5
a722f649912384a2379e9c4f298cb42b83a37053
39a6baf380dc4c5b29e18764874a811c9e293c0b
a617bd32902aa04036e3a58934598cf63b28bea0
eb6ec29b14bc39f6a9ca59a2c977b0d9bf42bd6d
e00e9bb8fa6bd0cb4b4f4e8de515deb9dba4bad5
b26f13d3b9dd255817d669a4bc37699cbb37eea5
10e2fc44e5e8be36ad1583b7adf95257c1f38c34
89de2e4b95ed28d72d7fba17752e2ab8fe872c4f
83bc3e794a4a2be0c788adc7ea47713fc6b6da0e
d1919d0e142208f7251815bdf06b188697fa4efd
f3899e8d5801d34c8c1aae1b8d20e2dda48d7787
6707aa751c7f120f9d2ed78fa60ccf2997810990
a5e9f633ef259e26744fdb8217035e2477dd301b
429d3987dc98fc37c3fbd1a44baf4a29eba1b975
93d9461ff53cdaa1049b5f235350db847d0edda2
195df8bec454f92e92f19a836c6c05750c58d3d9
4d6581fe3d6161bb55197040b3363273249b610e
eb02c57619fa66d40f5c0e79ee1564088ec3bc72
d786a38139d075623ea46bb12e51e97f35081396
4c9b4329f2e63b456af57cabcc5c2daa660c149c
a5aef71218e24908ed1994ba5cd9663c57119e32
dfe960855fec0fc053194f6da5a9cd912565c292
ad320f6cae80df35d016907bb4bcd016abf046ee
23f33629cab8c7773365ec19f4a8133071007cff
9f558348234ce929658226b98eba84c48a5405aa
d7c27d1b71887767d905d81dbff2038dbd2c5ea7
a719e88856014c766f0784f30fbcec575ef07b1b
6bfd2d6cec36aa887f507574c3ab20bcc7305b5f
8ad04dc6cac8739a9662aebe83218d9d05fc91c3
23de6d53612125317623a35ae82045a72f8c1a18
c5a29f00a49346e67ea5f1a70eaa2d92da15af62
7866282d5246964446f8416c6eebf51957435f15
4f9e6dcb130afd4528f5937436c7a55dc59be8d9
e83b5503daef3b9bef98202a97e12cf62b900813
1ffb1aea75c36def56b709bd0892b19df78d9249
34b181236a86421e44843ff9339afe7f4bb0a0c1
c0c9f689f6bd39b02471e2411a699a2d2b0bff4e
f700f9b14fead7ca6c3bed67005a7d5ea16ce1b8
1f2285f57e98ec286b4fc1505fdf46f0a6847376
d9dba0d75425091f55f6f12a424798bfd535b16f
f13e7053feb95f0b53de8749f5000bd34948fbc9
35a2326e82a832f95277b0e9dc930a4225bbda40
57dc0b3bc8ba21a262d3549f17da796106aa1036
d093ed4a546da835da40ae385cd2dd664ce62c51
4fd034ab5d28ac96d2ab59f33753d6b4d4c025b1
04430cd6d3acea80a43e64ee3988548854476713
13a1b73cd18f566dfb30ac7e778c5349dede1d03
d4438170c9cbfd5183ab9ad84584f5cb4125b8e0
2eb2901c1ce15d0562367d82c313272be377953a
d223c2905dea8177dcc7e3d25b0fd4b0ffb5861e
ffccf71fa53541f657bc48ff471a194a6d9300cb
e8fcbd4e75ce594042f393a5cf18db01ee512628
30d5136973ebfc1d650b659b5f5833613b2b8ded
1c13d8c9f3567276540f49673097197a2e37b27e
21db320f0eec1e081127ab55c0df55565816a474
e36d2dc3de7316d4196ac263400e29ed82ef220d
1c6813a06d85178c56bae1894a76199b49b3e8a3
d32e7ff865306eac8e20400d8bef1ac36757afea
9d89ad08371a7ef905c6e24589ef8d4456211a40
5c790b5e8a2fd1ddcd288a1104b0eaa6b3d0e51c
674af6ae12f51d24c6b0d5d033758ce37821c27a
685153663e5ff2599e6d70172039d44ea0b7a1f0
7df28adfe32361be1a4d69a3282f8c8f197ac278
e0545ba58359599a5beb7b69726530369412dda5
f88108e8767eee810276ff8935d48197b3de9b4b
4b0219ee9bdb5c1a1e5c1809ce40b8d0031a773b
6d0fb256c611ab7e3c05d143c21e0fcad3498017
5097009f8c35e11a77294c3a8b3abb309ad39427
3a92fb8a9e5f332a17ee6089e67583f7a5214a3a
0d0b0c56c33bd801f3f82f5c450be77f5012ccfa
d65cd371e7456f8acbf8af5dcb2166cce0e87b50
d51ccd221119bb81e40c83ea403cc5129465e6c5
0c9202ab75bc4ca9c8129f7e6bc98afc4da6ba44
3847fb00e52cf3a6b297d748e66c21e28ef3f476
56cdf73cb98c3b080e354eacec5c527cd3f1b265
1793c659caf2e6a02b9577adb06726bef6c4af3f
6269d21712213d741e58c56aac78c38ff198d7ec
d4049710bb22987767c7dcc1121f5f73760106a0
b2f550cb3b1aa213798e391057d36f13158d13c5
34b2ed1a8d9d3249c5ae60263137556931c8946e
5741721f71f185872aa3d4860644d31df22ace1b
d38219a85cf50d65656efa499e2933d94670f2dd
318a4d901fb6c952d65ba8c09be7bf2d9d791838
17a222e3972bfb52d567e61c444575f8bcdf49be
d0d25198716e23bb206e278f35ee4eeb6d00ba2c
cac77a47b265e4fd2e39fc469d0abb6d32704b72
11e5e2ba568ecc74f14b2135384e4ea79551850c
5d361094646faecaf7343142623054a4b834b1d8
fa6f7a4e6d2cb00394f7089977f2fce6a3116490
9ecd5739379970d618989eaf7a06334ff0e9407f
b97648f95e8894b59b2701718dbfbfa98727f0e1
de8671df9307c5ef1c6a95cb2559a7a41f022ee2
baf09787098e0270b3311ecc371fd3ccc62d6591
3412003bc25c253fbad0085cdbcf55e595f6d94e
e247a282b1cd5d8ebb9c3ec779766acc3867effa
77f1b2b4a097e413ce36e3ca4f7ff64d05e7a1d5
a6761fb4c94ad5fa1b3d2ce779c9199b4a16e3e9
eed6e6cc3a30ff498b0bcc20872fa9c2e4ee1e28
102b69d14f93e1eb0fc4a1e232389d2abc2ad290
aa80596b33bc55ef38004d11e5fb26f17d94865a
aff9af5af25776f258b6bbc099dc35a98d4cf03f
9d2fcd6ff38018dbe4615dde2a579cce1d1febba
a8205a9545ac2e7d57afdf7ef75a997a8d40c089
edfc15424ebd5b03710805fb63b08e68f729c9a8
39023c2c7e65b8a7017f87994ec4f0e1393dbca7
140aabef68c76aa98041966fa4eebd0717b0a7b2
eeb4e8f7b1dc2f9ee15774d4fa957ec650c4be05
fe73de34973d607e5700c628d5e3ae5f4f22acc1
8a8d1d1da669bfb5251f622f6ad6b3b32e22fbc3
238bdc90b82efa2349b26847cc54df1bbc47b172
1142a1aa062ec85ca3d2f3465afdaee56fff586b
9f123980731de93b45edcbfce6a67ec616db8fad
052a109bc94355744f563b01e2fa63d863251570
c8fc3a113597b3982f745b8128c1dc6322cc95de
e2086cb754b4cb13095bc4873921ea27fd89d3b4
9c0e9e17804ac7b6ab3a9c6ed934b13b4e81f598
46e9fe364a56628787856a8ad9777f94997523b1
661acd24c8281bb338ed8b66839b3b7e2d93bcc6
96da66960a679366f16030c6940403edb4d2f223
a07d24ec3ecb9d5d43e7f329bdd772a381f90fa3
c7e2562f1c0d80356c561bac895a022c4f6d5de7
ad4d99c764c4d217b1610c9baad682717d55f2f2
65634bda11cf81e2287700dd4cdd6fd947060034
d06a6285ea1c481b52746fd94265895767ae24ae
7048c5189815e4c20a1182e86c12909d7daacd55
f7606ffc315eca1af8576aa28dfa1587ad275e07
578def7a9b6c8949dbce5dec305e43429ffe1813
3275f74ef9738a4312dea10b9c7f185db79ab2a9
feac8bb5fad18e1a778642b7fe75def3d0898139
bab9af2b52b8f4880e4c3dc316751865cf77c2bb
f7a0a4db110a36c84e4c65031b447903d1994fa9
42d2f79239e8b15ed77ea95b760633df87ad1828
2dab4843728ed25c9803ebb1fcc0a8a168bacd8e
cfd34212343d58e02a4cec5ce25470f2592ffe76
f8aea1547e4b59d8f34f78e67b48b44fbf51cf02
464ea90492f2fc7aa4892cb6e1c65d998caa11a2
d0f67f97fc3d5c4b093049113059a4763e1f9dd0
e06ab750cb5cf59fda9ee0d8ca64eab63d96609b
4ec06f7c78680558232786c8d574c10b6cf5dc55
698f8d54eb909f820bed6166ce8db0863b6d68f9
ff6cf1787e877d2e3ffad13081a27eb434848ab0
f4a71f92ce873d30e1422f0435e836dc39216ce0
c079291012043b029fcbc1e3ce949e125a3820bb
bf3da2d0e36054a0487da6733a7d57a93288d182
df216c2b676d51348604fa0fbd557b0d937a93a8
8b7efa5db4f9ab69cd6fcf8768822040afc4aefd
05525065b2098f17217c31298a156d6ee44494fb
e10cc133f582eaa131b0319989094c9e48c3d024
c3a88d0c48e6fc6377d7ada879b1ad69bfdafb58
ab6a869825aea35af87593ac0de970f785e28090
8eba49c0cd8393855cefe5264834ae687990833c
01120b6a2b91c0bbfa76d3b1ccf9eb3d39ce450e
d3488a1852227cc1f01790b5c77c0766e04eae35
6b53303bd73db942ac1f5503752523f2a5f1df57
a4172500d5c439043c9d133f7295539fe54b4193
852a89220a8999157987ee747a372a8550529d52
6886a8b765ab7d98a07824228a24a767d7071eef
596e62398fe3a08a41858eaf08fdc43ff6cee659
9791a0327febb355f4ddc9257d94ed2412fe23f5
31185897afc709a83e3e6cf320b89c2a26b7f7cb
c729e34603b7160a990b3eb1bdffa541e6a0f27d
3011d52e457c9244cc7c055a16c4e061c0c752f3
e31dd0ebcada3953927399ecadafa0b809e5a544
dcdb1c5c187d7af6fd14ca82a19ef51e3d4f85f9
588cfa851896440f9d1208654e33ed480a33e7da
e67e99a8475aadaeecafbdf2a7a6508423102415
3179d8094ed773167efafeb955d9fb73a8b3d5d8
b67688fd0f7e2281af16c8d613c2708e7a992b99
8cf237f7f0f15248ec02522a87602dd9d6edfc88
16124dc14cf7a9680725d2a5f647f10e176771dd
219647385ab87ee13107a9f4e571964f5527ebf5
8a0f8e9d784cf2d65dfdeced671f78c3478f6afb
edd056d3deb35b7f5b35ec3504ff0ce1e7863203
5814ec65a4ac7bf92140cff0487dd708deea68ba
e0bef12e2cb2aa8df9f43e37da26e6b6eb5702a2
94a1633ec9572c19f8a35c6072795330a2b7bfd7
b29d55aa383a3ddce24cef9f300c87645e9eb411
7388b961a6425c0cd0c98abd976c5c0c9027d9be
347131e0fa4cdf9340a27d1e5500d985e30657a7
6dc0b1202064d7d065916cb54b0f600166e7b916
a09b750c2f3084140aa84d592155309bd99b377d
1574fc3188bf4c0fc0cc1cdbd494e9826c14467d
29cf4f83a3663d22280d18628f9c47ae50881c8b
0628bde12fb64c98871324ddf5df6687bd25b638
d8425331356effb4806e94b47a92cd09a85c2df8
c861adf6e02b14d90716364a91a3b67c731fdf80
adc1969d6c9eb006e1cbf31ea9d0b0e237e11760
7ffd228cbf2c2fca408ecb125dabce68e77edf2a
0879d2bbbea772ee5c3bcc1bbdecf58c31e8f308
2ab6e4b5b072fb2b6f954db375f4d5692e1282ab
8a35a9aad3d5a985ee1becb723f960ae1c7ba079
8ed89dbd8f13cb78c7b2ed0ed2f2fe257d0dbee8
96aee007cc72e51df12c61855dd2c90574d25bc8
37cf2553fb3b24ac8045f9e2a3d76723a16113f8
827effe4e28a687c99b3676f4c7486e9b6bf4893
7b61bdc08fb3f30b56a1a80e9a1acb6a2cb88403
43d2fb47bdc7c24081254a1e415810d415d56e7b
bfaa647bba22ef82196580be614aaa02f8ebc3d0
fecfadb853cc1c4dabc58a1a680c224873f97445
cae3010d6e9a3588b6aebb38adfe3382aa5913b8
4497d9362a4347a82acc9d611df544eb64e2ca18
580a6e491a91fe4d53b43630440f952e376f7156
53beb9c7e68ef114fee3efd1405ad9fbf045a827
142bce45600b6bbd24b88d65710c99aac2b5f084
6805ea719be0930f867c2c4736e7dabd1ddfe490
78dbbe76619662b9bd8b824f81f2c4011116b384
c2fe9778af631c6ca54e88c94af4c145c485682e
6765d097e53c68c85c867466e1bcd4c01bbec160
2997b5b40a4f03e851b873e310badc4ea1fb7e38
147173e56d873ee8e5e2036be105ea775b36caa4
fb8cc156f33447c29bd32ba6e022d9af42703be7
cfa4e5e4ee75662b98ba069c1af5934a204bd6c6
3a2350158deb828626653713882cb9bd1cdd15f0
590ebcc39485c912cf829571e6acee303fcc5a06
5698904374b1815c537e77e2b6255b66ba0b156e
6fbd3871a335d2c04425ca28c5638ecb301351e5
caf0a97ba3c13d9585e10177cdda614fbac4c51d
46a7f6ff5fc7acf61a791e576a9c423819274ba3
4c9ae49bf817cd4fab5e814974e773432fb00d0c
ff5ebb0a157753c0e4b3f5bd9fb8357d81d53d27
e1abd56c1d07ee7af134d27fe03878c1868aa191
48634e3d3000205914d155cba2202babccd964ba
70e90fc85eadb235f7eb7c44d388d6ccf718832f
b9cd9de5ed58df8a6b5fea6cec6a5839e26fec9d
373cd520127ff033c57e8d54635fc63885246e88
f9c38bb76b57141196d4d5dc5cc40995320c75f0
bda2f0a852f01a25211fc3837dcfbd28d4639224
aeb7903be8f287e8096d5221092a126019748855
12acb2cf093c7fde7afcf3297735084628f3574c
d76bfe72b5831f7681c807dc498c0aa79fcb363b
e410abed0296fb084ee6e612ef52e215748501c7
666f57a35e04790d33e72978105d4c7488e4db18
ee3ae043dce864e37b44f4e69813f89c1e6f7071
01d8de26cf6cd55cbcb698922a8eb29dd87947ea
d42ea03799b3df4fb87cd9476673e9132fe61106
fa3eb52f4e0f5265750fb49e6302d4363092aef2
899b16678f4a86354736c444b9c214b8ae055a4b
734a5a46d481040ebda476feec3680de9d2593b8
583ddfe992ff5a885bc9d71c182af6df7457fe98
645ba6d3b9ed4bb8e522f706191b7c01e2b2650e
afb7e511ada4c1c95ce7e84a66cc096a9cc7359c
bb6f5a6104d663f66fa52e1e93da431b94e797f2
7339e172e090321e6251fda158e4b63da8854f3b
76777b74b49a379cf780316a5155722a429d1a7c
df06536818d05f65055929108da09dd8b18159d3
c4bfb451833e04442197e442b65288b2d802691e
1609e1c3478fbdab7140060e8c6267eeec3e0ecb
3acda248c1ebdea704ba9aba0ee113389222d3fa
21004622351a83647c80b0dc74839307e70639e8
151bf08095137c7e19b174ae7e0a1f330f62cf65
ffe2831502c36fbf17b6e5a2b96c0633833bd838
382099fae2ad7f7502f129ef7aa079061d7d2f1f
63c94a4edcc250a1003acbb6c4208af50a6d9871
6da3fb5a90dace40e4403672164f71e78a0f1779
1f6591feb2bbbae660e03b4e0a5973e9e26ef08e
55cf5d67af2d9d9f12d211b664486c448f8669c9
031c26482ca049b2fdfa2d9f9decc8ea30e2a2da
ad6888a635f0490ac5f4b63208f4fb911eaabeb5
77742f5cf9f2580682b27536ed911621e7bc082d
f92a0fe53795310d3cce770192c7fa167a416fce
b2eea97036686a9875ebd24b38b694e8a5c1602e
7e3ecf6b469de1a840dd928541339e59e5325766
4eee24dc2cb838f5ddeba4789add49b8e60ad0d7
23d922fab26dd2c2030521049d1a8773c2b73cd2
3c79744064a14a8f2bebbbe07b85b4cfec00d3df
24ec8eeff6ea3652d2df84cbabd0a8897b853de9
d185a4b8d0f1b823377949ec501ec9d1e56a38ba
d809046987a3bc5d3e7899d966b7263dfcbac099
fee1515818448d4210459df10e031a3d5ff7d993
48912c03ac74410489024d6f00a87311e86ea955
553796fd751900127e532b2e9e2c590dc6ecd74b
cd35c1d1300d78c08f2e45f80533f624157544bb
3d568d449b586bf7938b1e3d7d2eb256b96f813b
a9e3951adbbab5429eeb56250900f3e125ccdc63
5cd9b6722a8d748a5db873f6435df1393a22026f
a24959b9ea4251b3b029a333a7de1510bb2be2bb
726ab5236b5404848d823ec47079a62353ba4fab
212be9327dd572fdadb6bfd610531470b9469b53
d2b6078eaa6846dc64936d8b2f35d94552f5977b
5a18c9143544829c0ddf7d8563d8c42b1b2671e8
55ed37d82c78c29024f44f5893ac4b34378619f6
1262c45ab3f3c68955b4b24654be6bb17e9a9983
e323b221d7fc88edb1cf824ab92c61be15416fe0
40c4d8447799bfd7bfd1e6d6a3b5621692422958
d01c7e05f93c2fb9c045a63a248cbde6cc0e0ab8
7de2d0c0dff52f0c30d2d394b017836b15456706
91d26f5abc635f713e90857cd3a859b99e728bf9
d0ee16781a214f8470462334346519b762c5b72b
8ed510e94a419bff59e8f630cd030abc0d85cfbb
5c95161bf5a061ee3d6b1fbd0ae089b47ad4e0e1
3970d5c9a9fcc5871e7d074df20e49c398a12c81
1e00b56a70e1cba1c97d9643bf6ac9a06d6edde3
c91b98e2545e9fa9f0ce45ab5ad1bfbeb2e12204
db6725dcbd32e45e7945c9eb73de2cc0c5a5b3b9
2bd880e94901ce7c27e289ddc2b0b14f3f919f53
5b9963f44ec874cf374ac4057f62dcfdb5b8d1d7
27095ce2b430921a01a3d5737de0e7dce5e39bea
f0b5bbacf9651ce385aa72c3774193c63ce7c741
4794030eab27bbae8f749541406eb025e62bf024
c6b707c442b9116b26a99fac16cd067c27628ae2
c511ff9872f23d7674d0e8bfc8dc58be76623015
b3f9f91f6a2026df2c937b0815b2abb24656f409
66f645cd55ef17587c47490434dada8b4d7dab36
cb6269ca4c6867dae667ba6649c6d67ee4c8d00f
f777482a9768388698452851fe2f347cbef69aec
6d4adea536502eb1c7db83680e84597f79356fa2
dc61906620068c5b49f417b5beba5ce35c2386a9
d1bafbc65fb5fc725288317ca8b030fe9a4fbe99
0da3fcbe51a07c9aba516f0e69fe733cfaabdff6
a26d1e4392777f38d1fe7e84c514469b97e4b70a
1912bfc81dfee9e274f03b7a966811c212ad9d5a
ede831664207868e4a47907e2a65a1ba0ad7c60a
6c5796934891a9a6de96d6adf835ed61e278ad90
35b08df70a0b7106e44a568716a141697468240d
f4dd29c70f3ae7945d88c3e8c189214ce9f96038
23a73f20d697a435448cdec375d5724fa589ad5a
832ed0c19839472364f84761055b1351d340ac64
7985fa94a959311783824aa746f739e177352255
019f5f029218c09e39d5d5916683daa8a952389f
666c943b66ce8d9723ef0a37c50a79efc41f75c1
1781e0e1dd271e7935a621e6a037551a51d083c5
6ce3eebc55cb36b87dd584b42956470f8daeefcf
7044f9a586f67c28810d69f130a8056f0a4c0052
f93c240a7c30da4e5cca76832c0571d654076db0
35ac9ef38e0ebf8c9abb718e66d0206a1c943260
4d95e233bc3b48b70fdd8e473200791e1f10b2b8
bca4c3abb2df407aed1392a639a076f055965d80
9e623c9cb121353e3624042afde411b321e10999
7d00231a60e91b988ecea2a1d53a1d04c60f19c1
2dc5463e93600b4123d4707a7e4674cc98748216
9bbce4a223fd0496e65abee46471b6dfbbf19ada
86bc09159d344d138ff28b5374e7e40a4c0d7dc5
903c530ae074cfb8d261c6fb01c2c568c8b7c8f2
1ff58978a287bf28c5eef96cac1d21a638056c16
0132b000912fba6865b0489b0d7ad1ccdd707a2d
5e64bb66e88c4e6ce28444f38da1c9ce254bd6b5
29b0af4f07e8a266262a135a8979fcffdb248412
214a26b529e99fdd87193248156e097250aa0321
c3bd292f73f009b7f9a07e34fe1a7a137ffec941
0c27f015bf3455ffdbc3cfa252a5e3f8192a5c5d
ae22b0aaa104ca6de6ac4ebac479ad9249dc1f42
95b6558068e987f9415af682f7c8e0ec73229cda
fea082e68914a686b6f33322b66af3bfb16a1100
4bd06dfdb12c20351930e2f8ee8b348f66639143
a77664bf8f760b7c550dac14fdfe72b8f597520e
5eb3a748c2c6000102f80629cf9267600c2d8599
121c88d7e21f6b33187515fc52ff4042688ba29f
149d97d0137f55ea9c14e3822e01f8796a34ffa6
5f2f072d694275f750d1ee139386cc64a0670f4f
c153fd5bd099ed2490a9914b7379661fb24078b3
db18337762c54b0753fe6b8585011bef7504be4a
fb64aa94b519ccc925d397dc23efa2c21054f425
ae004b5331c5c847c0b102c28587bf14d0af05c0
d9c0befe2422eb77c476a2c4b53a99c42ac13844
1b28c126c5870bac052b9bed31c9b1b9d43625b7
11478edb5b653b136705f5005d52e9277fb95ba7
2c3e7565fa5f86c42032f2e88e5b28de113f4bb6
431151b8e59458fbc0fef506f682e9c0b0d89b39
2d682dc2a3ecd32a179d4455c1b7a0e675768945
602c99c53200a10b76e8a5a93b1e4dbd86f03c09
ebe77cef211a76fa8653437bd7a40f3fdb5b0ee4
5ee6da38927b22df9f058ea990e27bbec596a52e
2ac8d11a343bbfeade6ff19c4b11800e6c37ab62
9125ff5616d5bb5c42996f0e4b58b0058d9f303a
44498e067ff021e144c87d58417c5803f19f9171
0198da7b6c394f7377c75e802d1ecd37f45c04c0
32738273e07e56d755334adaf91795f83474a2d1
4ea1d640c2973a8940956fc1e855afddca831f5c
bb898265b9fc3b0883dd9d4eec90d5c1769a3d90
6d917ca7ebd0329f0ac8e2f38d18884d4c128079
e7571355834f68275bbf0b5dcc3f5eab6dde1642
f7cc2c971dc0a7530c9319d6df24da4d8550a7d9
7e1dae813fed7d6043787aadd7685484c1f91a44
d50322f27fd99d594d58c4025b27a0edb4d6eb44
3569e869a95c1157a34d4fd5b68e510cad6ed4c9
ce7ca53bdf10434767f65fb52733402fe381195d
0fc8977bf23d736d4a5c993a902cf79bba2428c0
5e37b18f235ceb7d5986fb676f6502b7de3f7d66
9445fd1b6fc6fb02536adfeb9a76d39833cc4158
8cab65d1e8fd34606cd89b8ecbec0eaa742f595e
188c7f94aa6aca2c8c7cd857b7ee72faa9762516
acfa2b1ce0f40c04f105677c7d6b55a9b99d1dac
67d90615e142c6b9af487cf47b6f0f375c66c836
baea5f7a00bd9b9ba40a746007bb40ccb12ae065
d2427cac7ad30228512e4ef5b96546441d8d5373
9959cdd7058a6e6132ab5cc98be5b15ac590e3e7
48bb75b7dc1ae418709af6f2193afde4a3c0f6ba
700c21d5637a6dceb78b1f23fc97f1d89ceefe21
11f7606b6d0114a2cd9a82709301486fbc4ce860
1924e30482861bbfd3c9a5d97b1be655777e9ed7
80237f3074c1334334771bab586fe53b3467460c
93cec1c6d59a01af0d2cc924b3075843c894c119
0368aaed3f75b6f6e01a7c59204cc835d6e9ea90
10e447d25dd0d27f07df021218204e32d12f0697
bd403bdb98db5f845255fd52d878d320b0e3d408
a865090d7a1c503590c4b5726cf9ee56b3cf20aa
1912930e01b418d4d156875cf6c358a2c5705203
66b1960979106b148623dc5a9ff016c9965f9308
8e94c0cd604053168e17bb1d7a5059a5b9e04c7d
c460c90dea8a4d3b23fedc75b4c22347e3b35b18
61731817928420fbe9229c2797a9b2fc32fc0ee4
6602f1332959d916738587983dcfb0b733d28dea
f5fb85a0afc2b1dcaeaaf64e734f921bf9b725f9
5eec9ac58cb4f2fe2518ef21b07845c7cf4c7b99
6329cbe94080df5e72a398e61b3733a026be8390
afe9c3c57795bcf001970182a5c7bb4a0b5feff8
878eda0d26f0272e2502bca479d45dd32fa3e760
cd24a10d2045399e14f09124acf7a5604bc5d51c
414e02cb3e01ea90bc1dd46bfbbfaba785ca1b37
549145687e2d5f1b5a3e4f536849082cf85e274b
748c169ee2efd834b70e52e53728564621e3bfdc
2bf7467726fa246466dd331742c5209167bbe869
017dfff5273a2a37eca36f0c6e91a56fdc3a9e4b
b97a26d17601cd97cb71f8230b4a3338c6249b98
e213b54b71921c658aafbf631a1cfd154beea72a
d4348ab4d75c2db7befbe59b050a98f8a70a27fd
1b2dfc1dd599080cbbf5ee47f9deecd8d4c1b8b0
4e7852e29e602e6f5a2c6ded1213ee92814ad9cf
18ac6f925f0e577794cccdee2746963e92a4d59e
044fd23b0ba34bf06c7a178e5387184e4c41e8df
e7d5048440899e6f3f1d5814f0076c24a7ab0423
678137b638cd84ab303c4db22991e273b4ba9618
c6ce2c3984a22a70e2c8a5afefdaa2c5bba6a5b3
57b2d9a443d52a20777d92998af81f25281010c4
0e3679e919ff6b8eb25e87486f5b2c1143d8462b
feac0d6a3da6c3ee27ae83d31aa320d3ed3da5f6
630473bf84ba548456c92b8a8cd7c0e2f534425e
b29b5a8289a35fb6846e53f2a38b611f9d3b9e1a
ea94ea850bb4eb236ef85aea6512f0940877eebe
834277a9ebaec7e53e85e7c37888891d1199d020
c848b8cc582756a8d023b958439d9adb1079cb13
7896ec05f6b7451ed3e019611157bcc6bc228b47
90045fd487e4e81b2a6312cbd811b2a3404435e9
3b5c36782daf2a49dc21d3aa3d39a6d37f02b319
b876bd8cec3d6f403a577e0094e992b8ab0a9687
9aed1addb18430e64b11afdf541013e0ab955890
cd3acef9e12dcf03f1ddabb1e36977a080cbaab7
0976673ac23e1978a8bbdf5e6b960f41d950e5fc
b8af182e8c75ab781a39833d10ec231bb26ed3a2
34b9b00723765dab8ed6cf50137931be13dd19c9
81d29bafc29049f5f5094ac6cd553eef60b5dee6
d8cd49c1b725a5e0a9355a25d6fa7ce887774138
33187d0285e1c48f1fb4953f1199a53e123da6a6
79fe2324c9167a74df45be5c254b2e254b265962
7db3eacbb4f22b1eed1a2ad4a577a20412a602cd
22f33539c1f977d098d24bc7c978bdb1c5691d99
85e63a2c98884bbaee249b010bdb7e036439c149
00ec5be6ddca2985dce561ae8ce9a8fd1cbb94cd
7f1ff668f760ab2a3977abee2847296baee0c5ea
486218ab2843547da8962810a5dbf9bffbf789cd
dddf14f79afac0e0083809c17b64112238f4e8d3
da04e2cae996492d112cc60ded80d19e07674f42
4376cd5a913798e539696b1dc61d556a4569fccc
8d5d8fd1724d0d02c084658e7cf2bcaf0a7dfeb8
cfa679429232bf4d049269467949246315e32f47
85dc8f93f568a62fb8e7506d6acf4418441ad27e
8c15102bc34a454da8ab421a430715f4c90fe3ad
6f18c940dd255419893a99cdc26f2df09201f533
50f043fa3eb1266df9c80d211c3064b5f081110d
d7c53437e90f27639fe2e69838d8c45964e04c80
6611563c8c350815dab782229f82ebccccdcd264
5170838e795e008330966030b584a9b2b12d5c62
362ecf640bf449334ccda8361776045e08e8860f
5f1ecc9022cd62d64cc715d25b8fe714ed43d7f4
6a759f0c63e4a632edde2cec3d6df123e8b6ce9c
d3f24589a40bf38e79deefe289a8dc6845ed7017
ea7c7e769cce94cf44e2b95da36171ce672be169
0f3edc8cd8ef10e1afddfc996848677a00be962f
032226521dc7af4f28a746cdbe3b11d81112e406
d52b238d6260382d650ae8afcdac49f825d60a7c
caa5c34cbef91fe378c479bd796cd5747f1e5d82
107937d5ae566cee7deaae562ea5873c6d950bac
20718a2b6407adaec6ff87365426e19fa6147731
5b08a8c2b55678ec9884534297e0602a9512c85e
e34d49449664a2a35da20d0e111c8f9c050a9938
ef6404ae0cdf32cb420dfa4cf493cc63b724a517
ab4d7f766066421eef7b3c6362bc59fe1fff6a74
a056b9af633042738afbc06fe267f7c9e447e68b
d9a37093e2b24cd6d5dc09bde5ac596402e6226c
1d1e88397ea4acd548fd58b28b15a0bc492e810e
8b9f63e578133664df86b8a734f70fb27ec067d5
d96b633b5f1048ca6ef9b032d956b0be77a11e66
82e677591c1548210e2d95d2b081bdce6f2ccc85
658b40c42e9ab53a2a26297f6a9416fab7cf5e87
d1be3feefc417f6ebac8f07cbf1ddb3c276db2bf
7a503f15192f258e8541caf11c7f2439ffe3a9ea
8da05713fe08b226dbb6d1ee4bf6066954e29fce
07fba7f8593822dc1b18eaad98537b03c6b56be7
ea784b00b5029a6ecce3d2358a1739115c58688e
7d1ec117878b63aa610410432fd713523790b0c4
605ac3d35aba0cd165d9f2a34b4fb9a452eca7bb
4144017b7547ed64a02426cc5cb5d88fdd632a82
a7c181072efaa18d12c75de7c09beca4443e6ae5
3b69dd7ddb72c2708cf4ae804a8fa9afcc4a2ebc
834b373a9626e558c1a554a1f3ec757c49588d0f
f4165b10e907eb8c69f221a7a201f70f46ef7bfe
48929afd60aab28574b2356773ab24f80dfa193b
57551914af578f4d4615440828394b769338ce7f
8f3799c02e1026bc4f5f4bb9958fb94b57a72490
1ae53127777ee7da5fafe466658c443b25219ebb
10bc616b4b5599becbcbcc4b76d95fb2a8a4106c
88833d9ded6949e03de3a98ccff67c67b2c6e551
a8c5f840bda6206c164f77ec269f8c9c13d527de
4d13ccc1092b83d79980419e04392dd239b01676
b4d84ce73b3209b3165b3934ca9f0ca98ff35e89
6ff5a87d01b3af3c441983a60b7e9a4c46d46106
a0d9a59206ffd6fa96c26aa0f07170531f6f6fdc
b4c6d82be736baf971ed9c7bc1896413a0577d1e
9dd9b00851f77b9b35ca724ab785fdc29b79e492
07f17cfd4f51a397ebd058bd047ec330f8d4b572
66f7d5a800517dcb788c736c2ef482e669c7de15
edd969b384583e63aa8e463cd8edbb4dd1380514
96e1cf0385ef2015c87d836ee60ba20d57d6c3fe
65eda0902d61438898fb15acc5828ff68fc2160e
094a4aaa8db5bbae6aa475fadabce0a933b5286a
1837b200512031991c963e935705a0447673c3be
49bac1aa73e0c83f1d6526c95954ed3b8bcb7485
2d6cfe9af6a8ed85c4ee43c435c791a0a261bb08
a7c73d2e52535abe93e40daccbdb133bb41014fc
a2eed846b4a1ebd1b4c623e22cbff299ed19bc6a
866a74305c4b64eb5ffb177d7cee43638579c6f3
8e9b51a412b2e99d0456dc91c633651b2e9c361e
166363d438860b03f5915ac23826f7e644768bbd
1b40d714b5f44cac5ca8890ff0d0bf94312ca3a8
27827068cdafc63e664c4371ed602bc956576c64
ad805a1f703eeaa64f7af2a9be1c4994f657950a
0a594a27d5584f174abd1545aed9f273c208ac81
d882e4f27cb175c0a0c66ddc9e340075f746a37c
6f30a4a748afced35b10f7d42290977a6eb56df2
a1c07e91228f01e88c1ae68f5db6fa557e58f5c1
1ad95d7433f67e1b888f521e27a0293b1d9c5288
7c2934c15f4f53e256a13433018265641cd6757e
2740da7c70d6d47d6d0670c1bb903e974330b320
53cc66142c9cf1a59d096423d4a4514cd4f25037
