a6a04b30dead3fc5cde0b24ad35d23704e3c6b13
3df7481f8ea193f750c5b853f68a803c63752511
351267aae201340fdb8efe3f208920e1f2c183e3
90d867fb0615dc95b8e74cf4aca20cd69a21203f
51c65bde4e2cc5b76f966a7fcd093a2ba8eed6c9
cde40a8ab329c1725a7a83eb0fec1783db6efbf9
ec48677f5bcb5712c28710bd03f3e32c5ac9ed64
a230039e31c499cb5948e91dcb10f46806f1ddf7
8b681c4ec7dda2065ac6d47ff4077a1635032017
8bfb2a589d8a3c1dd42b4c4b415ccda136db22a5
770eaea5fe3259f6106e207f1bbadb965d1cbdb4
b7064910e2c09f84db46cfec162f8939496be777
e5072deae5e3ee7919a7a0e8faebd098c4d0025f
b751bd335d76c4d7277e4cbda14ca8858306de02
fd95d43843404aa000cbf1c20b1cdb6146e850e2
1f07c3732e83ad4d6ecc522b726e1b24636c77c9
e3622722631f621cb31776b847d71266c5de58b2
b7b25929620be28115d643f82753daf2a69d71bf
e0da5a17777ea2d753a9ff843f3e592bd630332c
16af6a14e51acf61df1fdb8e93d12200b33b239d
13515135d928d557d52fbae0547e69414030acb9
2c8f3f29678bb64a094989092d8747103d0c7a3e
facac4306f19503ec9d744a1d50b608dff42646f
a039b6fff8562e30a11c227c646eb46dc047b4ad
0933d64ac151574e0f708ec496e3164351fd2004
0e9dcb9c6beeee63682c33af664a0d2a0eddeac4
2708157075b879e1d7683e4ca48f765a6d20247b
9211c40920350049634eb69e3c970c764c1a32ef
b29e80d53ea5a7af1fa94dd5b6b4d58ffd6b14ff
c19e24c52c899d6323c780fa03e0ab325fb57863
8ca2341a9ae5c3d9150f83a65fccff6d02982426
bda3d93d25ec38ee712eb4e10b7eb3c2c5ae7d10
752ea7b77a1779ed8b784dbd55a886cc00aeb8a6
aa302454146ea88e7c1cb794ad7751eb9b082e4a
0a5b2fa83271f1d966739621d1b788e73032f17b
8075b2e24b98c0167ff559de6de9b48d3e530078
6e6293fcd40e1ec8dbe3c367caf1c7df572a3b1b
259942a1a07455f107c528a67b422de2fc99f423
4f15aaddb54af30b64a863944f7244b2a94cb7cc
ec65ba176a58db6a53c69f54b6ea2c0d689ba99a
c8038b956535f7c09b849eadad304377f9f8024e
a062b8c70c6e44571ad95f17bec8b60ec84fef96
139353223bc908df49702c806afedbf21a84f2f7
e813a0be86c87366157a0201e6c61662cadee586
50dfd16cc193b12e9d8d50711aa60efa403aab2b
bdda2e53eacd2e819e831fc8359a480d63613f5f
04f395a47571c98d31d23fb83d774f40f4148429
cd0f257a6514869f7b93b17c7beb3867870c1da3
95fe83060fb9443d9156d5d4255be0fa23657526
a0a5bbc137c2698d4cdae6c6310cedc9f865cdf8
1eaced1db5ba1344a8db9f525ffe6da2ff0ccf12
4fee1964a32ca5cd31a9cf09ff058b3d9a5dcc90
0ae55a8f89996eed8ed7f05e818d6d45c4c10753
da41838c5859484375ec1411d2033a3262e35fa7
bcbfba399043a1a20f7069bfbfea910bf94ef2fa
e5d9dec994c8a975bd7ea045e4115307be75b0a4
c29662c3b69115fd8d579d1e523f7f2b0901011e
40eb5a717dc31cc6729178397580e87c0bc10d10
fc31334a6cf47836c221bfa487dc72941afe15fa
faae1d6fd17db198e1da3736b8e152390c23a33b
0d8d480cdf5f2c6a2328c16646d05364f9abd963
66d9c6288eb95bfa0a583d00abfd751cbbd763b5
2efb1780391911b3ca6aa0fd9415e81e22fce51a
6e704554d2245651eb2c88227e7da4c3eebdcecd
6027745dd93f5117d866659eecc93165b91501f8
1583b645976fdcdbe41d34020b13fb6939c5bf8a
6de015f80c158cdcafaa1f9c8b2b4effedc379a8
cf1d16882945a146c1b33dd752792209a705ecdb
52926ea09486e02d9d667d43f1af080d820f6b59
761e901c63e9f76bf8daa8856124f23590815e52
845ba874cc5552f4deccf7d6262d351e4bbd72e4
64d9da1b80641c97b2c90098a2d28fa1306e5712
93bdd5bd83f61bd04ef257dc429984594950f67a
bf8d4e4610a8374766bd2ade149967c64ee54add
1c647785989d6cd93f2a4b15325b7555e21c35d9
26a82b7bc512a0f66f3c4c17eb4809cd03d178e5
886e3c1f6f6e08dc55b0deacef48debfc1de9428
08b27ff75fdb7242382158ca61cb9dcabdf6ea16
23d5335cf42dccedf81f693c22247fd130413226
64e49bd1420df94cf6deec8de485bb72cdad1af8
2dd88696b4ad6e965f4633a6984474128861fac4
1b834b70eb3d160b0cdaaafb9d483dc7c1058a2b
1eb28b95d925c4bddadec9f10a4060544a00a3c6
c0da1a3e11f395233aa97786e6f1fee2760eb1b4
09fdc66a1a4abb85b061d2853d37e04c82f214e9
04716f350f9e2cced297a78ed60a66ee5cccc7c4
8a442380b36a3acfd393432b87cc691b0ed49e16
bd693a5f85893e9fb42e90c0de90dfeba41ccaec
a14ba512aedb5f1a47d353ad9f27ebc2580bb93a
77ca614ae6f09036e966eafa1e02422b70178476
945d7905335ef5180dc988bccd80f3b453a7b661
17990f04b4d52e0c9eb30dd329ed91b10321f886
710e561e0dd174a2d10a806e2e77a8079b474903
0e43ebd0873f6efefcc720cc89b9a20747758431
87e6f3cde27428ad2324d2f774d7941324fcc041
71632e8b95c70ce0e4c35d54e6f0aa622231560c
161e97215e176de8cfd06c2f9bc050c0ff817588
4d9c9b4ef2e094cbae22f428d705c1acac2bb081
ffb75f11a65a46d6a56c076480f9858bf7d44280
50e4fd5493371cdb641b304eda81253577e00381
9e4b7db44c50e9d0e857a2e0f2d2b257114cb57f
31abcbfc170c50c3af152146ee45d7978368d9fa
c7cba18b5aee25dec21d4fc53e9c743b72bcf3cf
16d317a0f40850b1849f3fc1b4eb8c2634fcb9f9
fbf3095cf6afb8c17f823d629838af206f4fd489
a33104b9a540f4df80ba6f70bcadf90dc4f04304
118e756568f7e9a8045e87575c190a2c304071a6
f803ea27c825cda7dec5b93a01555435d0a442ba
301afe59f9215a3845577c1402adfbfed356f774
d591a580300f5996ffc30e152bec2599ea679ce2
75b780f7a630a610e5a33d751be7c495f43ccc8e
0ddc47b7db78120ff91a38ab3da6a43f0c6e818c
e56bfa8c4af2d677a13472d34060fa00c9b86f31
44de4614bf69e68c3b9c1934e97ffe22ecd66d5a
590bbc1067227e179769c263c7d88cd3241e7d1d
ba76b5df71b94a1e374bc2eda0ebbe61bb8de7e2
e610fe89f44dad8c4402fb34d0eb68abe4522af2
0546c3be02014a2a32b2740f5881c1aebb60715e
a74ddadfd456ed537617047ccee97584fa61660a
2b14ee03de444decee506fbce0c6919540dc4475
2a15e79ba26ced22916ef712fe8cc772f899f94a
c6e8d42fe97d0eef323fc85d50c3f8c558a3e5f2
99e7228af17f7f461cd595bc8107189f9597da0a
4da77fb5dbe4d1d081442c4cf76d0d5c5ee39f8c
a1ebdc93d423e11fa1a83ec5f486f6325029db4c
f9c17e02455115b68d17b9d547e3b77c8c7fa3ed
4d964cdd0db6ab96df60e5cbd02ae4e7d8815d1e
ea6882e99cdd993166769236b644fa55d6f2e237
17bc56ed714685d6ebbfd851c0c3dea874e7e33f
f35dcf251d0a5922292774eb6c81cba6afaabb8e
b73b947f446f877cd750e05a12f3855de72f754c
30e581766f4cda1ed846b97ad0274c0a8f116536
dd7c22ea26c0a73ffdbc113e9ed3761140a46c45
c78730127651f7281506d35755d67a1a5d34692a
9883d1f97571608860cc81e715ca746e2b42c9ef
84bdb853b13cdbc8ed7423fa2dcbacc5ad8cf838
609ba431b9fb9378c85a74cbbea309a4258aa26c
1ebea4d8e02aff0bc96cad34c959ab680421f8eb
125842491a8441595836f4c42c9e4c7362593281
babb83869c9b4fe199c6097dc3271fa33ffb19dd
799d275078c88f8eeb0599b87c74f61098702bbe
57fe506c3ec87fd0907ddd94a8af44efad6e94e0
a61abe606a89180cb5536fed7d31b34d7740247d
d75a01b08e2eeab3bd6b504ded824f129374941c
745076c37ec5090c1c5fdae0a22090c3198b8b9c
13af7a53e3201a139f446bb253bde71dad2e5d2d
d5f31b84866a26a457142dce2c3bb05cd92c1af5
ac47a876b1d3e5638fa8c67edf9a1ecfa2a9de6b
78f198e2d2d2ec291498a218734c7f5934dbeb34
c85ea83fcc72eef04c61270dc2f8618f51442183
8b960840fd7b0b191c7312675168c0e2ad208321
aae27295b54c4756126326332877170460378cfd
f3f58f19272c2c8887bc185df2c9a435e70cc83d
e1e014bb6aed3ee10a9be60f380428b59c74b79a
7485fef24a1964f951f42c84713e0f864aeac787
c2670f0bc5cf11e9af033a55029607410d3271b3
b5b703245d3e51bb03d3f547dea4d7915599c739
5d0186f065b9ed4ff185234c860c7455343f1f39
46fd815ba85dad890b5be97b43a03577717d0e29
50e278c98b4a02f13106cf059c6fbb0c648c0edd
07d9c02e53ad7369a4ad98352da1dc857f83c78c
4c01048cc3df863b7f9700828a56721b395314e6
82a010cb39fe4bbd9b993e63a55a8e4cc78c07cb
8d168dd203acf2e068a6b6f6029e9baaea992538
d07540014c5ab5e7e021d8cd36426a1fc893818a
d13d6ca0ee71ff55174ca518215c29c876c422dd
fd22eb3253c9157089cb270cbec4d2a6be0e7bfb
77d91b4bd49a1f9f2f2211cd43afd24d470e6fb9
f894a8c2b87092c777aae1c52c7cdae9a3353066
1290de96b53dc3f3e77ff5390537a1355945adc9
068577439251135c6a970d7d62729b4f08529360
f9c61d2f49390a582614874fb09c02bfb3a440d6
43e53e14693fa2781aedf1775a0671ba0502ebb2
d8f4a63ae30cd7e4d7edc257b048390ffee2b555
9cbf3474866d0e62fe5cf56afe416ba57622d35c
e0a8a08c56bd656bdf5ab5c9ab3ed111e4ad0694
08af6db74ccd2403ef74d1837b96daabb2b42764
1e31bd193d330ab3ffa063bfe7ac5f4bdada7aea
794c28ff89e018222cfea1f47763526311f97642
7231ca19364abdcbd15ffc760e43894cb78528c4
e3ec0f3dfb1a2a2db8d1c35ffa26738fff93489f
41205fbb2828f219e00dc52c205891a8b776c0db
946f7353a6bf8275f9d46b4b2d3d680221c73f87
f6a241204a7fb02a3f0875e3c4fd70d26226f1dd
83908a512d1feb4b3f54dd22b6dde73aa44cecea
7bd158f81cb9b77b681c43bdf9c13d03a3301282
cc5a7237940844827827e52127d117c41f9ee1b0
4484f89a3d7c2856e3d86112e59250edec522af6
5759e65cd2f25ba5497199b1dbd79336454d62c9
d82a1a18416386a9435c6b8cc02abdf8636a953d
ee7fdb16b260637222aa8726e3e29ec9536ac9f0
a1fb45ababf40c7fc5936317479ccabc9cd3bbd4
d4dabffbcb64cbaa42b0ee7bcb9374ecd8699de4
4d6d0f0d583c49c804b67c93073ef82e159b50b6
1ee71ff5646d99db0d9521a9eebe66cfe81a5c0d
68b43b2caae50e93692332576baa0558adfd1a4c
1b11ebeeff714a53ccd1185dfc96de479a60d892
d4a9d0c92085e732231e5bbb09f8e1f1fe292f6a
2c54862671e5e8e09c60f86105ab21002488cfb1
61551e05a00d9b37c4a21594be5bc89e4954372e
8b0a2d46f7e417d8951a3e12d64fa2d4d02885ac
