Special, Regular
-1,-1
-1,-1
1,-1
-1,1
1,-1
-1,1
-1,1
1,-1
-1,-1
1,-1
-1,1
-1,-1
-1,1
-1,-1
-1,-1
1,1
1,1
1,-1
-1,1
1,-1
1,-1
-1,-1
1,1
1,-1
1,1
1,-1
1,1
1,-1
-1,-1
1,-1
-1,1
1,1
1,-1
1,-1
-1,-1
-1,-1
1,1
-1,1
-1,-1
-1,-1
-1,-1
-1,-1
-1,-1
-1,-1
-1,1
-1,-1
,-1
,-1
,-1
,-1
,-1
,-1
,1
,-1
,-1
,1
,-1
,-1
,-1
,1
,-1
,1
,1
,-1
,1
,-1
,1
,-1
,-1
,1
,1
,1
,-1
,1
,1
,1
,1
,1
,1
,1
,1
,1
,1
,1
,1
,1
,1
,-1
,1
,1
,-1
,1
,-1
,1
,1
,1
,1
,1
,1
,1
,-1
,1
,1
,1
,1
,-1
,1
,1
,-1
,1
,1
,1
,-1
,-1
,-1
,1
,1
,1
,-1
,-1
,-1
,1
,1
,1
,1
,1
,1
,-1
,1
,1
,1
,1
,-1
,1
,-1
,1
,-1
,1
,1
,1
,1
,1
,1
,1
,1
,1
,1
,1
,1
,1
,1
,1
,-1
,1
,1
,-1
,1
,-1
,1
,1
,1
,-1
,1
,1
,-1
,-1
,1
,-1
,-1
,-1
,-1
,-1
,-1
,-1
,-1
,-1
,1
,-1
,1
,-1
,1
,-1
,-1
,-1
,1
,1
,-1
,-1
,-1
,1
,-1
,1
,1
,1
,1
,-1
,-1
,-1
,-1
